EESchema Schematic File Version 4
EELAYER 30 0
EELAYER END
$Descr A4 11693 8268
encoding utf-8
Sheet 3 6
Title "IZIRUNF4"
Date "2020-07-27"
Rev "A"
Comp "IZITRON"
Comment1 ""
Comment2 ""
Comment3 ""
Comment4 ""
$EndDescr
Connection ~ 6735 4155
Connection ~ 6710 2430
Connection ~ 6510 2430
Connection ~ 4935 2255
Connection ~ 5135 1705
Connection ~ 4935 3280
Connection ~ 3510 5855
Connection ~ 6935 2430
Connection ~ 6710 3955
Connection ~ 4285 2705
Connection ~ 5460 2555
Connection ~ 6510 4055
Connection ~ 5960 1980
Connection ~ 5135 1980
NoConn ~ 3535 5155
Connection ~ 3310 5055
Connection ~ 4935 2955
Connection ~ 4935 2480
Connection ~ 4285 2955
Connection ~ 3760 5055
Connection ~ 6935 4355
Connection ~ 4935 2705
Connection ~ 5710 3030
Connection ~ 7160 4855
Connection ~ 6285 4255
$Comp
L power:GND #PWR019
U 1 1 5C063954
P 3460 4505
F 0 "#PWR019" H 3460 4255 50  0001 C CNN
F 1 "GND" V 3465 4377 50  0000 R CNN
F 2 "" H 3460 4505 50  0001 C CNN
F 3 "" H 3460 4505 50  0001 C CNN
	1    3460 4505
	0    1    1    0   
$EndComp
$Comp
L power:GND #PWR023
U 1 1 5C06407C
P 5085 5855
F 0 "#PWR023" H 5085 5605 50  0001 C CNN
F 1 "GND" H 5090 5682 50  0000 C CNN
F 2 "" H 5085 5855 50  0001 C CNN
F 3 "" H 5085 5855 50  0001 C CNN
	1    5085 5855
	1    0    0    -1  
$EndComp
$Comp
L izi-eth:LAN8742A U6
U 1 1 5C062095
P 5085 4255
F 0 "U6" H 5840 4980 59  0000 C CIB
F 1 "LAN8742A" H 4385 3455 50  0000 C CNN
F 2 "Housings_DFN_QFN:QFN-24-1EP_4x4mm_Pitch0.5mm" H 4185 2955 50  0001 L CNN
F 3 "http://ww1.microchip.com/downloads/en/DeviceDoc/22299B.pdf" H 4585 2955 50  0001 C CNN
	1    5085 4255
	-1   0    0    -1  
$EndComp
$Comp
L device:R_Small R20
U 1 1 5C063844
P 3710 4505
F 0 "R20" V 3635 4455 50  0000 L CNN
F 1 "12k1" V 3785 4430 50  0000 L CNN
F 2 "Resistor_SMD:R_0603_1608Metric" H 3710 4505 50  0001 C CNN
F 3 "~" H 3710 4505 50  0001 C CNN
	1    3710 4505
	0    1    1    0   
$EndComp
$Comp
L device:C_Small C32
U 1 1 5C064A60
P 5460 2780
F 0 "C32" H 5485 2855 50  0000 L CNN
F 1 "100nF" H 5485 2705 50  0000 L CNN
F 2 "Capacitor_SMD:C_0603_1608Metric" H 5460 2780 50  0001 C CNN
F 3 "~" H 5460 2780 50  0001 C CNN
F 4 "MC0402B104K160CT" H 1260 680 50  0001 C CNN "Manufacture Ref"
F 5 "https://fr.farnell.com/multicomp/mc0402b104k160ct/condensateur-0-1-f-16v-10-x7r/dp/1758896" H 1260 680 50  0001 C CNN "Distributor"
	1    5460 2780
	1    0    0    -1  
$EndComp
$Comp
L device:CP_Small CP2
U 1 1 5C064AF8
P 5910 2780
F 0 "CP2" H 5935 2855 50  0000 L CNN
F 1 "10uF" H 5935 2705 50  0000 L CNN
F 2 "Capacitor_Tantalum_SMD:CP_EIA-2012-15_AVX-P" H 5910 2780 50  0001 C CNN
F 3 "~" H 5910 2780 50  0001 C CNN
F 4 "https://fr.farnell.com/murata/grm21br61c106ke15k/condensateur-10-f-16v-10-x5r-0805/dp/2611940" H 1260 680 50  0001 C CNN "Distributor"
F 5 "GRM21BR61C106KE15K" H 1260 680 50  0001 C CNN "Manufacture Ref"
	1    5910 2780
	1    0    0    -1  
$EndComp
$Comp
L power:GND #PWR025
U 1 1 5C069790
P 5710 3080
F 0 "#PWR025" H 5710 2830 50  0001 C CNN
F 1 "GND" H 5715 2907 50  0000 C CNN
F 2 "" H 5710 3080 50  0001 C CNN
F 3 "" H 5710 3080 50  0001 C CNN
	1    5710 3080
	1    0    0    -1  
$EndComp
$Comp
L power:+3V3 #PWR024
U 1 1 5C0646E1
P 5460 2430
F 0 "#PWR024" H 5460 2280 50  0001 C CNN
F 1 "+3V3" H 5460 2580 50  0000 C CNN
F 2 "" H 5460 2430 50  0001 C CNN
F 3 "" H 5460 2430 50  0001 C CNN
	1    5460 2430
	1    0    0    -1  
$EndComp
$Comp
L device:C_Small C30
U 1 1 5C06D53F
P 5560 1705
F 0 "C30" V 5610 1730 50  0000 L CNN
F 1 "1uF" V 5510 1730 50  0000 L CNN
F 2 "Capacitor_SMD:C_0603_1608Metric" H 5560 1705 50  0001 C CNN
F 3 "~" H 5560 1705 50  0001 C CNN
F 4 "https://fr.farnell.com/avx/0603yd105kat2a/condensateur-1-f-16v-10-x5r-0603/dp/1327680" H 1260 680 50  0001 C CNN "Distributor"
F 5 "603YD105KAT2A" H 1260 680 50  0001 C CNN "Manufacture Ref"
	1    5560 1705
	0    1    -1   0   
$EndComp
$Comp
L device:C_Small C31
U 1 1 5C06D7CA
P 5560 1980
F 0 "C31" V 5610 2005 50  0000 L CNN
F 1 "470pF" V 5510 2255 50  0000 R CNN
F 2 "Capacitor_SMD:C_0603_1608Metric" H 5560 1980 50  0001 C CNN
F 3 "~" H 5560 1980 50  0001 C CNN
F 4 "https://fr.farnell.com/multicomp/mc0402b471k250ct/condensateur-470pf-25v-10-x7r/dp/1758907" H 1260 680 50  0001 C CNN "Distributor"
F 5 "MC0402B471K250CT" H 1260 680 50  0001 C CNN "Manufacture Ref"
	1    5560 1980
	0    1    -1   0   
$EndComp
$Comp
L power:GND #PWR026
U 1 1 5C06E4A0
P 5960 2055
F 0 "#PWR026" H 5960 1805 50  0001 C CNN
F 1 "GND" H 5965 1882 50  0000 C CNN
F 2 "" H 5960 2055 50  0001 C CNN
F 3 "" H 5960 2055 50  0001 C CNN
	1    5960 2055
	-1   0    0    -1  
$EndComp
$Comp
L power:+3V3 #PWR022
U 1 1 5C07BDFA
P 4935 1630
F 0 "#PWR022" H 4935 1480 50  0001 C CNN
F 1 "+3V3" H 4935 1780 50  0000 C CNN
F 2 "" H 4935 1630 50  0001 C CNN
F 3 "" H 4935 1630 50  0001 C CNN
	1    4935 1630
	1    0    0    -1  
$EndComp
Text HLabel 2410 3955 0    50   BiDi ~ 0
RXN
Text HLabel 2410 3655 0    50   BiDi ~ 0
TXP
Text HLabel 2410 3755 0    50   BiDi ~ 0
TXN
Text HLabel 2410 3855 0    50   BiDi ~ 0
RXP
Text HLabel 2410 4305 0    50   Output ~ 0
LED_Y
Text HLabel 2410 4205 0    50   Output ~ 0
LED_G
Wire Wire Line
	4660 2955 4935 2955
Wire Wire Line
	5460 2555 5235 2555
Wire Wire Line
	4285 2705 4285 2955
Wire Wire Line
	5035 3405 5035 3280
Wire Wire Line
	3310 5405 3310 5055
Wire Wire Line
	5910 2555 5460 2555
Wire Wire Line
	5960 1705 5960 1980
Wire Wire Line
	5460 2680 5460 2555
Wire Wire Line
	5460 3030 5710 3030
Wire Wire Line
	4935 2705 4935 2955
Wire Wire Line
	4660 2480 4935 2480
Wire Wire Line
	4935 2005 4935 2255
Wire Wire Line
	3460 4505 3610 4505
Wire Wire Line
	5910 3030 5710 3030
Wire Wire Line
	3310 5855 3510 5855
Wire Wire Line
	5135 1980 5135 3405
Wire Wire Line
	3760 5855 3760 5605
Wire Wire Line
	3760 4855 4035 4855
Wire Wire Line
	3510 5855 3760 5855
Wire Wire Line
	3810 4505 4035 4505
Wire Wire Line
	4935 1630 4935 1805
Wire Wire Line
	5910 2680 5910 2555
Wire Wire Line
	5710 3030 5710 3080
Wire Wire Line
	5235 2555 5235 3405
Wire Wire Line
	5135 1705 5135 1980
Wire Wire Line
	4935 3280 4935 3405
Wire Wire Line
	4460 2955 4285 2955
Wire Wire Line
	5660 1705 5960 1705
Wire Wire Line
	4285 2480 4285 2705
Wire Wire Line
	5460 2880 5460 3030
Wire Wire Line
	5035 3280 4935 3280
Wire Wire Line
	4935 2480 4935 2705
Wire Wire Line
	3310 5605 3310 5855
Wire Wire Line
	3310 5055 3435 5055
Wire Wire Line
	5085 5155 5085 5855
Wire Wire Line
	3760 5055 3760 5405
Wire Wire Line
	3760 5055 3760 4855
Wire Wire Line
	4660 2705 4935 2705
Wire Wire Line
	4285 2955 4285 3080
Wire Wire Line
	3310 4705 4035 4705
Wire Wire Line
	4935 2955 4935 3280
Wire Wire Line
	5460 1980 5135 1980
Wire Wire Line
	4460 2705 4285 2705
Wire Wire Line
	5460 1705 5135 1705
Wire Wire Line
	3310 5055 3310 4705
Wire Wire Line
	5460 2430 5460 2555
Wire Wire Line
	5910 2880 5910 3030
Wire Wire Line
	5960 1980 5660 1980
Wire Wire Line
	3635 5055 3760 5055
Wire Wire Line
	6285 4705 6185 4705
Wire Wire Line
	5960 1980 5960 2055
Wire Wire Line
	6185 4355 6935 4355
Wire Wire Line
	6935 3280 6935 4355
Wire Wire Line
	6285 3280 6285 4255
Wire Wire Line
	4410 1880 4410 2255
Wire Wire Line
	6185 4155 6735 4155
Wire Wire Line
	6185 4455 8085 4455
Wire Wire Line
	4410 2255 4935 2255
Wire Wire Line
	4935 2255 4935 2480
Wire Wire Line
	7160 3280 7160 4855
Wire Wire Line
	7160 4855 8085 4855
Wire Wire Line
	6735 5180 6735 4155
Wire Wire Line
	7460 4055 8085 4055
Wire Wire Line
	6935 4355 8085 4355
Wire Wire Line
	7460 4255 8085 4255
Wire Wire Line
	6735 4155 8085 4155
Wire Wire Line
	6185 4255 6285 4255
Wire Wire Line
	6510 3280 6510 4055
Wire Wire Line
	6185 3655 8085 3655
Wire Wire Line
	7260 3955 6710 3955
Wire Wire Line
	6710 3280 6710 3955
Wire Wire Line
	6710 3955 6185 3955
Wire Wire Line
	6185 3855 8085 3855
Wire Wire Line
	6285 3080 6285 2430
Wire Wire Line
	6285 2430 6510 2430
Wire Wire Line
	7160 3080 7160 2430
Wire Wire Line
	6285 4255 7260 4255
Wire Wire Line
	6735 5380 6735 5855
Wire Wire Line
	7260 4055 6510 4055
Wire Wire Line
	7460 3955 8085 3955
Wire Wire Line
	7160 2430 6935 2430
Wire Wire Line
	6510 3080 6510 2430
Wire Wire Line
	6510 2430 6710 2430
Wire Wire Line
	6710 3080 6710 2430
Wire Wire Line
	6185 3755 8085 3755
Wire Wire Line
	6935 3080 6935 2430
Wire Wire Line
	6935 2430 6710 2430
Wire Wire Line
	6185 4855 7160 4855
Wire Wire Line
	6185 4055 6510 4055
$Comp
L device:C_Small C28
U 1 1 5C07C1DB
P 4560 2480
F 0 "C28" V 4510 2505 50  0000 L CNN
F 1 "100nF" V 4610 2505 50  0000 L CNN
F 2 "Capacitor_SMD:C_0603_1608Metric" H 4560 2480 50  0001 C CNN
F 3 "~" H 4560 2480 50  0001 C CNN
F 4 "MC0402B104K160CT" H 1260 680 50  0001 C CNN "Manufacture Ref"
F 5 "https://fr.farnell.com/multicomp/mc0402b104k160ct/condensateur-0-1-f-16v-10-x7r/dp/1758896" H 1260 680 50  0001 C CNN "Distributor"
	1    4560 2480
	0    1    1    0   
$EndComp
$Comp
L device:L_Small L2
U 1 1 5C07BE63
P 4935 1905
F 0 "L2" H 4960 2030 50  0000 L CNN
F 1 "120" V 4885 1830 50  0000 L CNN
F 2 "Inductor_SMD:L_0603_1608Metric" H 4935 1905 50  0001 C CNN
F 3 "~" H 4935 1905 50  0001 C CNN
F 4 "BLM18PG121SN1D" V 4785 1605 50  0000 L CNN "Manufacture Ref"
F 5 "https://www.mouser.fr/ProductDetail/Murata-Electronics/BLM18PG121SN1D?qs=%2fha2pyFaduiel0%2fVgJ%252brEEoob2BEBH6pq4rS7LIvX%2fYqWMiDxMkiVw%3d%3d" H 4935 1905 50  0001 C CNN "Distributor"
	1    4935 1905
	1    0    0    -1  
$EndComp
$Comp
L power:GND #PWR021
U 1 1 5C080B06
P 4285 3080
F 0 "#PWR021" H 4285 2830 50  0001 C CNN
F 1 "GND" H 4290 2907 50  0000 C CNN
F 2 "" H 4285 3080 50  0001 C CNN
F 3 "" H 4285 3080 50  0001 C CNN
	1    4285 3080
	1    0    0    -1  
$EndComp
$Comp
L device:C_Small C26
U 1 1 5C097A6F
P 3310 5505
F 0 "C26" H 3335 5580 50  0000 L CNN
F 1 "6pF" H 3335 5430 50  0000 L CNN
F 2 "Capacitor_SMD:C_0603_1608Metric" H 3310 5505 50  0001 C CNN
F 3 "~" H 3310 5505 50  0001 C CNN
F 4 "https://fr.farnell.com/multicomp/mc0402n6r0d500ct/condensateur-6pf-50v-c0g-np0-0402/dp/1758936" H 1260 680 50  0001 C CNN "Distributor"
F 5 "MC0402N6R0D500CT" H 1260 680 50  0001 C CNN "Manufacture Ref"
	1    3310 5505
	1    0    0    -1  
$EndComp
$Comp
L device:R_Small R13
U 1 1 5C135CAD
P 7160 3180
F 0 "R13" H 7185 3280 50  0000 L CNN
F 1 "10k" V 7085 3105 50  0000 L CNN
F 2 "Resistor_SMD:R_0603_1608Metric" H 7160 3180 50  0001 C CNN
F 3 "~" H 7160 3180 50  0001 C CNN
	1    7160 3180
	1    0    0    -1  
$EndComp
$Comp
L device:CP_Small CP1
U 1 1 5C07C385
P 4560 2955
F 0 "CP1" V 4485 3055 50  0000 L CNN
F 1 "10uF" V 4610 3005 50  0000 L CNN
F 2 "Capacitor_Tantalum_SMD:CP_EIA-2012-15_AVX-P" H 4560 2955 50  0001 C CNN
F 3 "~" H 4560 2955 50  0001 C CNN
F 4 "https://fr.farnell.com/murata/grm21br61c106ke15k/condensateur-10-f-16v-10-x5r-0805/dp/2611940" H 1260 680 50  0001 C CNN "Distributor"
F 5 "GRM21BR61C106KE15K" H 1260 680 50  0001 C CNN "Manufacture Ref"
	1    4560 2955
	0    1    1    0   
$EndComp
$Comp
L power:GND #PWR020
U 1 1 5C09A77A
P 3510 5855
F 0 "#PWR020" H 3510 5605 50  0001 C CNN
F 1 "GND" H 3515 5682 50  0000 C CNN
F 2 "" H 3510 5855 50  0001 C CNN
F 3 "" H 3510 5855 50  0001 C CNN
	1    3510 5855
	1    0    0    -1  
$EndComp
$Comp
L device:R_Small R10
U 1 1 5C17AC42
P 6510 3180
F 0 "R10" H 6535 3280 50  0000 L CNN
F 1 "10k" V 6435 3105 50  0000 L CNN
F 2 "Resistor_SMD:R_0603_1608Metric" H 6510 3180 50  0001 C CNN
F 3 "~" H 6510 3180 50  0001 C CNN
	1    6510 3180
	1    0    0    -1  
$EndComp
$Comp
L device:R_Small R17
U 1 1 5C170858
P 6735 5280
F 0 "R17" H 6760 5380 50  0000 L CNN
F 1 "10k" V 6660 5205 50  0000 L CNN
F 2 "Resistor_SMD:R_0603_1608Metric" H 6735 5280 50  0001 C CNN
F 3 "~" H 6735 5280 50  0001 C CNN
	1    6735 5280
	1    0    0    -1  
$EndComp
$Comp
L device:R_Small R14
U 1 1 5C19DEE6
P 7360 3955
F 0 "R14" V 7410 4055 50  0000 L CNN
F 1 "33R" V 7360 3880 50  0000 L CNN
F 2 "Resistor_SMD:R_0603_1608Metric" H 7360 3955 50  0001 C CNN
F 3 "~" H 7360 3955 50  0001 C CNN
	1    7360 3955
	0    1    1    0   
$EndComp
$Comp
L power:GND #PWR028
U 1 1 5C170A05
P 6735 5855
F 0 "#PWR028" H 6735 5605 50  0001 C CNN
F 1 "GND" H 6740 5682 50  0000 C CNN
F 2 "" H 6735 5855 50  0001 C CNN
F 3 "" H 6735 5855 50  0001 C CNN
	1    6735 5855
	1    0    0    -1  
$EndComp
$Comp
L power:+3V3 #PWR027
U 1 1 5C1BB646
P 6710 2430
F 0 "#PWR027" H 6710 2280 50  0001 C CNN
F 1 "+3V3" H 6710 2580 50  0000 C CNN
F 2 "" H 6710 2430 50  0001 C CNN
F 3 "" H 6710 2430 50  0001 C CNN
	1    6710 2430
	1    0    0    -1  
$EndComp
$Comp
L device:R_Small R12
U 1 1 5C1598AC
P 6935 3180
F 0 "R12" H 6960 3280 50  0000 L CNN
F 1 "1k5" V 6860 3105 50  0000 L CNN
F 2 "Resistor_SMD:R_0603_1608Metric" H 6935 3180 50  0001 C CNN
F 3 "~" H 6935 3180 50  0001 C CNN
	1    6935 3180
	1    0    0    -1  
$EndComp
$Comp
L device:C_Small C27
U 1 1 5C09A738
P 3760 5505
F 0 "C27" H 3785 5580 50  0000 L CNN
F 1 "6pF" H 3785 5430 50  0000 L CNN
F 2 "Capacitor_SMD:C_0603_1608Metric" H 3760 5505 50  0001 C CNN
F 3 "~" H 3760 5505 50  0001 C CNN
F 4 "https://fr.farnell.com/multicomp/mc0402n6r0d500ct/condensateur-6pf-50v-c0g-np0-0402/dp/1758936" H 1260 680 50  0001 C CNN "Distributor"
F 5 "MC0402N6R0D500CT" H 1260 680 50  0001 C CNN "Manufacture Ref"
	1    3760 5505
	1    0    0    -1  
$EndComp
$Comp
L power:PWR_FLAG #FLG04
U 1 1 5C81C376
P 4410 1880
F 0 "#FLG04" H 4410 1955 50  0001 C CNN
F 1 "PWR_FLAG" H 4410 2054 50  0000 C CNN
F 2 "" H 4410 1880 50  0001 C CNN
F 3 "~" H 4410 1880 50  0001 C CNN
	1    4410 1880
	1    0    0    -1  
$EndComp
$Comp
L power:PWR_FLAG #FLG05
U 1 1 5C820BE5
P 5135 1480
F 0 "#FLG05" H 5135 1555 50  0001 C CNN
F 1 "PWR_FLAG" H 5135 1654 50  0000 C CNN
F 2 "" H 5135 1480 50  0001 C CNN
F 3 "~" H 5135 1480 50  0001 C CNN
	1    5135 1480
	1    0    0    -1  
$EndComp
$Comp
L device:R_Small R9
U 1 1 5C16D207
P 6285 3180
F 0 "R9" H 6310 3280 50  0000 L CNN
F 1 "10k" V 6210 3105 50  0000 L CNN
F 2 "Resistor_SMD:R_0603_1608Metric" H 6285 3180 50  0001 C CNN
F 3 "~" H 6285 3180 50  0001 C CNN
	1    6285 3180
	1    0    0    -1  
$EndComp
$Comp
L device:R_Small R15
U 1 1 5C185087
P 7360 4055
F 0 "R15" V 7410 4155 50  0000 L CNN
F 1 "33R" V 7360 3980 50  0000 L CNN
F 2 "Resistor_SMD:R_0603_1608Metric" H 7360 4055 50  0001 C CNN
F 3 "~" H 7360 4055 50  0001 C CNN
	1    7360 4055
	0    1    1    0   
$EndComp
$Comp
L device:R_Small R11
U 1 1 5C192F88
P 6710 3180
F 0 "R11" H 6735 3280 50  0000 L CNN
F 1 "10k" V 6635 3105 50  0000 L CNN
F 2 "Resistor_SMD:R_0603_1608Metric" H 6710 3180 50  0001 C CNN
F 3 "~" H 6710 3180 50  0001 C CNN
	1    6710 3180
	1    0    0    -1  
$EndComp
$Comp
L device:R_Small R16
U 1 1 5C15CCB7
P 7360 4255
F 0 "R16" V 7410 4355 50  0000 L CNN
F 1 "33R" V 7360 4180 50  0000 L CNN
F 2 "Resistor_SMD:R_0603_1608Metric" H 7360 4255 50  0001 C CNN
F 3 "~" H 7360 4255 50  0001 C CNN
	1    7360 4255
	0    1    1    0   
$EndComp
$Comp
L device:C_Small C29
U 1 1 5C07C353
P 4560 2705
F 0 "C29" V 4510 2730 50  0000 L CNN
F 1 "100nF" V 4610 2730 50  0000 L CNN
F 2 "Capacitor_SMD:C_0603_1608Metric" H 4560 2705 50  0001 C CNN
F 3 "~" H 4560 2705 50  0001 C CNN
F 4 "MC0402B104K160CT" H 1260 680 50  0001 C CNN "Manufacture Ref"
F 5 "https://fr.farnell.com/multicomp/mc0402b104k160ct/condensateur-0-1-f-16v-10-x7r/dp/1758896" H 1260 680 50  0001 C CNN "Distributor"
	1    4560 2705
	0    1    1    0   
$EndComp
Text HLabel 6285 4705 2    50   Input ~ 0
NRST
Text Notes 5220 860  0    118  ~ 24
ETHERNET
Wire Wire Line
	2410 3755 4035 3755
Wire Wire Line
	5135 1480 5135 1705
Wire Wire Line
	2410 3855 4035 3855
Wire Wire Line
	2410 3655 4035 3655
Wire Wire Line
	4460 2480 4285 2480
Wire Wire Line
	2410 4305 2575 4305
Wire Wire Line
	2410 4205 2845 4205
Wire Wire Line
	2410 3955 4035 3955
$Comp
L device:Crystal_GND2_Small Y3
U 1 1 5EB75C75
P 3535 5055
F 0 "Y3" H 3535 5260 59  0000 C CIB
F 1 "25MHz" H 3535 5160 39  0000 C CIB
F 2 "MyFootPrint:OSC_4P_2x1_6" H 3535 5055 39  0001 C CIB
F 3 "~" H 3535 5055 39  0001 C CIB
F 4 "XRCGB24M000F3M00R0" H 3545 4895 39  0000 C CIB "FAB REF"
F 5 "81-XRCGB24M000F3G0R0" H 3535 5055 39  0001 C CIB "MOUSER"
F 6 "C127895" H 3535 5055 39  0001 C CIB "LCSC"
	1    3535 5055
	1    0    0    -1  
$EndComp
Text HLabel 8085 3655 2    50   BiDi ~ 0
ETH_RMII_TXD0
Text HLabel 8085 3755 2    50   BiDi ~ 0
ETH_RMII_TXD1
Text HLabel 8085 3855 2    50   BiDi ~ 0
ETH_RMII_TXEN
Text HLabel 8085 3955 2    50   BiDi ~ 0
ETH_RMII_RXD0
Text HLabel 8085 4055 2    50   BiDi ~ 0
ETH_RMII_RXD1
Text HLabel 8085 4155 2    50   BiDi ~ 0
ETH_RMII_RXER
Text HLabel 8085 4255 2    50   BiDi ~ 0
ETH_RMII_CRS_DV
Text HLabel 8085 4355 2    50   BiDi ~ 0
ETH_RMII_MDIO
Text HLabel 8085 4455 2    50   BiDi ~ 0
ETH_RMII_MDC
Text HLabel 8085 4855 2    50   Output ~ 0
ETH_RMII_REFCLK
Wire Wire Line
	2575 4680 2575 4800
$Comp
L device:R_Small R18
U 1 1 5FF6827F
P 2575 4580
F 0 "R18" H 2600 4680 50  0000 L CNN
F 1 "10k" V 2500 4505 50  0000 L CNN
F 2 "Resistor_SMD:R_0603_1608Metric" H 2575 4580 50  0001 C CNN
F 3 "~" H 2575 4580 50  0001 C CNN
	1    2575 4580
	1    0    0    -1  
$EndComp
$Comp
L power:GND #PWR0102
U 1 1 5FF6EB41
P 2575 4800
F 0 "#PWR0102" H 2575 4550 50  0001 C CNN
F 1 "GND" H 2580 4627 50  0000 C CNN
F 2 "" H 2575 4800 50  0001 C CNN
F 3 "" H 2575 4800 50  0001 C CNN
	1    2575 4800
	1    0    0    -1  
$EndComp
Wire Wire Line
	2575 4305 2575 4480
Connection ~ 2575 4305
Wire Wire Line
	2575 4305 4035 4305
Wire Wire Line
	2845 4685 2845 4805
$Comp
L device:R_Small R19
U 1 1 5FF75DD0
P 2845 4585
F 0 "R19" H 2870 4685 50  0000 L CNN
F 1 "10k" V 2770 4510 50  0000 L CNN
F 2 "Resistor_SMD:R_0603_1608Metric" H 2845 4585 50  0001 C CNN
F 3 "~" H 2845 4585 50  0001 C CNN
	1    2845 4585
	1    0    0    -1  
$EndComp
$Comp
L power:GND #PWR0103
U 1 1 5FF75DDA
P 2845 4805
F 0 "#PWR0103" H 2845 4555 50  0001 C CNN
F 1 "GND" H 2850 4632 50  0000 C CNN
F 2 "" H 2845 4805 50  0001 C CNN
F 3 "" H 2845 4805 50  0001 C CNN
	1    2845 4805
	1    0    0    -1  
$EndComp
Wire Wire Line
	2845 4205 2845 4485
Connection ~ 2845 4205
Wire Wire Line
	2845 4205 4035 4205
$EndSCHEMATC
