EESchema Schematic File Version 4
EELAYER 30 0
EELAYER END
$Descr A4 11693 8268
encoding utf-8
Sheet 1 6
Title "IZIRUNF4"
Date "2020-07-27"
Rev "A"
Comp "IZITRON"
Comment1 ""
Comment2 ""
Comment3 ""
Comment4 ""
$EndDescr
Connection ~ 6425 1275
Wire Wire Line
	3000 1600 4050 1600
Wire Wire Line
	3000 2125 4050 2125
Wire Wire Line
	3000 2400 4050 2400
Wire Wire Line
	3250 4600 4050 4600
Wire Wire Line
	3250 6950 3250 4600
Wire Wire Line
	3325 4700 3325 6875
Wire Wire Line
	3325 6875 4050 6875
Wire Wire Line
	3400 4775 4050 4775
Wire Wire Line
	3400 6800 3400 4775
Wire Wire Line
	3475 4850 3475 6725
Wire Wire Line
	3475 4850 4050 4850
Wire Wire Line
	3475 6725 4050 6725
Wire Wire Line
	3550 4950 4050 4950
Wire Wire Line
	3550 6625 3550 4950
Wire Wire Line
	3625 5025 3625 6550
Wire Wire Line
	3625 6550 4050 6550
Wire Wire Line
	3700 5100 4050 5100
Wire Wire Line
	3700 6475 3700 5100
Wire Wire Line
	3775 5200 4050 5200
Wire Wire Line
	3775 6375 3775 5200
Wire Wire Line
	3850 5275 3850 6300
Wire Wire Line
	3850 6300 4050 6300
Wire Wire Line
	3925 5350 4050 5350
Wire Wire Line
	3925 6225 3925 5350
Wire Wire Line
	4050 1475 3000 1475
Wire Wire Line
	4050 2000 3000 2000
Wire Wire Line
	4050 2250 3000 2250
Wire Wire Line
	4050 4700 3325 4700
Wire Wire Line
	4050 5025 3625 5025
Wire Wire Line
	4050 5275 3850 5275
Wire Wire Line
	4050 6225 3925 6225
Wire Wire Line
	4050 6375 3775 6375
Wire Wire Line
	4050 6475 3700 6475
Wire Wire Line
	4050 6625 3550 6625
Wire Wire Line
	4050 6800 3400 6800
Wire Wire Line
	4050 6950 3250 6950
Wire Wire Line
	5800 1375 7375 1375
Wire Wire Line
	5800 1625 7375 1625
Wire Wire Line
	5800 1825 7375 1825
Wire Wire Line
	5800 2050 7375 2050
Wire Wire Line
	5800 2200 7375 2200
Wire Wire Line
	5800 2350 7375 2350
Wire Wire Line
	5800 2550 7375 2550
Wire Wire Line
	5800 2750 7375 2750
Wire Wire Line
	5800 2900 7375 2900
Wire Wire Line
	5800 3050 7375 3050
Wire Wire Line
	5800 3250 7375 3250
Wire Wire Line
	5800 3450 7375 3450
Wire Wire Line
	5800 3650 7375 3650
Wire Wire Line
	5800 3850 7375 3850
Wire Wire Line
	5800 4000 7375 4000
Wire Wire Line
	5800 4150 7375 4150
Wire Wire Line
	5800 4300 7375 4300
Wire Wire Line
	5800 4450 7375 4450
Wire Wire Line
	5800 4600 7375 4600
Wire Wire Line
	5800 4750 7375 4750
Wire Wire Line
	5800 4900 7375 4900
Wire Wire Line
	5800 5050 7375 5050
Wire Wire Line
	5800 5200 7375 5200
Wire Wire Line
	5800 5350 7375 5350
Wire Wire Line
	5800 6275 6275 6275
Wire Wire Line
	5800 6450 6525 6450
Wire Wire Line
	5800 6650 6775 6650
Wire Wire Line
	5800 6950 6900 6950
Wire Wire Line
	6150 5475 6150 6200
Wire Wire Line
	6150 6200 5800 6200
Wire Wire Line
	6275 5550 7375 5550
Wire Wire Line
	6275 6275 6275 5550
Wire Wire Line
	6400 5650 6400 6375
Wire Wire Line
	6400 6375 5800 6375
Wire Wire Line
	6425 800  6425 1275
Wire Wire Line
	6425 1275 5800 1275
Wire Wire Line
	6425 1275 7375 1275
Wire Wire Line
	6525 5725 7375 5725
Wire Wire Line
	6525 6450 6525 5725
Wire Wire Line
	6650 5850 6650 6575
Wire Wire Line
	6650 6575 5800 6575
Wire Wire Line
	6775 5925 7375 5925
Wire Wire Line
	6775 6650 6775 5925
Wire Wire Line
	6900 6275 9625 6275
Wire Wire Line
	6900 6950 6900 6275
Wire Wire Line
	7375 1475 5800 1475
Wire Wire Line
	7375 1700 5800 1700
Wire Wire Line
	7375 1900 5800 1900
Wire Wire Line
	7375 2125 5800 2125
Wire Wire Line
	7375 2275 5800 2275
Wire Wire Line
	7375 2425 5800 2425
Wire Wire Line
	7375 2625 5800 2625
Wire Wire Line
	7375 2825 5800 2825
Wire Wire Line
	7375 2975 5800 2975
Wire Wire Line
	7375 3125 5800 3125
Wire Wire Line
	7375 3325 5800 3325
Wire Wire Line
	7375 3525 5800 3525
Wire Wire Line
	7375 3725 5800 3725
Wire Wire Line
	7375 3925 5800 3925
Wire Wire Line
	7375 4075 5800 4075
Wire Wire Line
	7375 4225 5800 4225
Wire Wire Line
	7375 4375 5800 4375
Wire Wire Line
	7375 4525 5800 4525
Wire Wire Line
	7375 4675 5800 4675
Wire Wire Line
	7375 4825 5800 4825
Wire Wire Line
	7375 4975 5800 4975
Wire Wire Line
	7375 5125 5800 5125
Wire Wire Line
	7375 5275 5800 5275
Wire Wire Line
	7375 5475 6150 5475
Wire Wire Line
	7375 5650 6400 5650
Wire Wire Line
	7375 5850 6650 5850
Wire Wire Line
	9625 800  6425 800 
Wire Wire Line
	9625 6275 9625 800 
$Sheet
S 7375 1200 1700 4825
U 5EF6AD0D
F0 "connector" 118
F1 "connector.sch" 79
F2 "USART1_TX" I L 7375 1625 50 
F3 "USART1_RX" O L 7375 1700 50 
F4 "I2C1_SCL" I L 7375 1825 50 
F5 "I2C1_SDA" B L 7375 1900 50 
F6 "SPI1_SCK" I L 7375 2050 50 
F7 "SPI1_MISO" O L 7375 2125 50 
F8 "SPI1_MOSI" I L 7375 2200 50 
F9 "SPI1_CS0" I L 7375 2275 50 
F10 "SPI1_CS1" I L 7375 2350 50 
F11 "SPI1_CS2" I L 7375 2425 50 
F12 "ADC0" O L 7375 2550 50 
F13 "ADC1" O L 7375 2625 50 
F14 "PWM0" I L 7375 2750 50 
F15 "PWM1" I L 7375 2825 50 
F16 "PWM2" I L 7375 2900 50 
F17 "PWM3" I L 7375 2975 50 
F18 "PWM4" I L 7375 3050 50 
F19 "PWM5" I L 7375 3125 50 
F20 "IO0" B L 7375 3850 50 
F21 "IO1" B L 7375 3925 50 
F22 "NRST" I L 7375 1275 50 
F23 "BOOT" I L 7375 1375 50 
F24 "WKUP" I L 7375 1475 50 
F25 "CAN_H" U L 7375 3250 50 
F26 "CAN_L" U L 7375 3325 50 
F27 "SWD_SWCLK" O L 7375 3650 50 
F28 "SWD_SWDIO" B L 7375 3725 50 
F29 "IO2" B L 7375 4000 50 
F30 "IO3" B L 7375 4075 50 
F31 "IO4" B L 7375 4150 50 
F32 "IO5" B L 7375 4225 50 
F33 "USB_DM" B L 7375 3450 50 
F34 "USB_DP" B L 7375 3525 50 
F35 "IO6" B L 7375 4300 50 
F36 "IO7" B L 7375 4375 50 
F37 "IO8" B L 7375 4450 50 
F38 "IO9" B L 7375 4525 50 
F39 "IO10" B L 7375 4600 50 
F40 "IO11" B L 7375 4675 50 
F41 "IO12" B L 7375 4750 50 
F42 "IO13" B L 7375 4825 50 
F43 "IO14" B L 7375 4900 50 
F44 "IO15" B L 7375 4975 50 
F45 "IO16" B L 7375 5050 50 
F46 "IO17" B L 7375 5125 50 
F47 "IO18" B L 7375 5200 50 
F48 "IO19" B L 7375 5275 50 
F49 "IO20" B L 7375 5350 50 
F50 "ETH_TXP" B L 7375 5475 50 
F51 "ETH_TXN" B L 7375 5550 50 
F52 "ETH_RXP" B L 7375 5650 50 
F53 "ETH_RXN" B L 7375 5725 50 
F54 "ETH_LED_G" B L 7375 5850 50 
F55 "ETH_LED_Y" B L 7375 5925 50 
$EndSheet
$Sheet
S 4050 6100 1750 925 
U 5F3CA02D
F0 "eth" 118
F1 "eth.sch" 50
F2 "TXP" B R 5800 6200 50 
F3 "TXN" B R 5800 6275 50 
F4 "RXP" B R 5800 6375 50 
F5 "RXN" B R 5800 6450 50 
F6 "LED_Y" O R 5800 6650 50 
F7 "LED_G" O R 5800 6575 50 
F8 "NRST" I R 5800 6950 50 
F9 "ETH_RMII_TXD0" B L 4050 6225 50 
F10 "ETH_RMII_TXD1" B L 4050 6300 50 
F11 "ETH_RMII_TXEN" B L 4050 6375 50 
F12 "ETH_RMII_RXD0" B L 4050 6475 50 
F13 "ETH_RMII_RXD1" B L 4050 6550 50 
F14 "ETH_RMII_RXER" B L 4050 6625 50 
F15 "ETH_RMII_CRS_DV" B L 4050 6725 50 
F16 "ETH_RMII_MDIO" B L 4050 6800 50 
F17 "ETH_RMII_MDC" B L 4050 6875 50 
F18 "ETH_RMII_REFCLK" O L 4050 6950 50 
$EndSheet
$Sheet
S 4050 1200 1750 4275
U 5EB5BEF3
F0 "mcu" 118
F1 "mcu.sch" 79
F2 "BOOT" I R 5800 1375 50 
F3 "CAN_H" U R 5800 3250 50 
F4 "CAN_L" U R 5800 3325 50 
F5 "NRST" I R 5800 1275 50 
F6 "PA0_WKUP" I R 5800 1475 50 
F7 "PA9_UART1_TX" O R 5800 1625 50 
F8 "PA10_UART1_RX" I R 5800 1700 50 
F9 "PA13_SYS_SWDIO" B R 5800 3725 50 
F10 "PA14_SYS_SWCLK" I R 5800 3650 50 
F11 "PA8_I2C3_SCL" O L 4050 1475 50 
F12 "PC9_I2C3_SDA" B L 4050 1600 50 
F13 "PC10_SPI3_SCK" O L 4050 2000 50 
F14 "PC11_SPI3_MISO" I L 4050 2250 50 
F15 "PC12_SPI3_MOSI" O L 4050 2125 50 
F16 "PA15_SPI3_CS" O L 4050 2400 50 
F17 "PB7_I2C1_SDA" B R 5800 1900 50 
F18 "PB3_SPI1_SCK" O R 5800 2050 50 
F19 "PB4_SPI1_MISO" I R 5800 2125 50 
F20 "PB5_SPI1_MOSI" O R 5800 2200 50 
F21 "PB2_SPI1_CS1" O R 5800 2350 50 
F22 "PC1_SPI1_CS2" O R 5800 2425 50 
F23 "PA3_ADC_IN3" I R 5800 2550 50 
F24 "PA6_ADC_IN6" I R 5800 2625 50 
F25 "PE9_TIM1_CH1" O R 5800 2750 50 
F26 "PD0_IO14" B R 5800 4900 50 
F27 "PB6_I2C1_SCL" O R 5800 1825 50 
F28 "PA4_SPI1_CS0" O R 5800 2275 50 
F29 "PB14_USB_DM" B R 5800 3450 50 
F30 "PB15_USB_DP" B R 5800 3525 50 
F31 "PD1_IO15" B R 5800 4975 50 
F32 "PD2_IO16" B R 5800 5050 50 
F33 "PD3_IO17" B R 5800 5125 50 
F34 "PD4_IO18" B R 5800 5200 50 
F35 "PD10_IO19" B R 5800 5275 50 
F36 "PD11_IO20" B R 5800 5350 50 
F37 "PE11_TIM1_CH2" O R 5800 2825 50 
F38 "PE13_TIM1_CH3" O R 5800 2900 50 
F39 "PC6_TIM8_CH1" O R 5800 2975 50 
F40 "PC7_TIM8_CH2" O R 5800 3050 50 
F41 "PC8_TIM8_CH3" O R 5800 3125 50 
F42 "PE8_IO0" B R 5800 3850 50 
F43 "PE10_IO1" B R 5800 3925 50 
F44 "PE12_IO2" B R 5800 4000 50 
F45 "PA5_IO3" B R 5800 4075 50 
F46 "PB0_IO4" B R 5800 4150 50 
F47 "PB1_IO5" B R 5800 4225 50 
F48 "PD12_IO6" B R 5800 4300 50 
F49 "PD13_IO7" B R 5800 4375 50 
F50 "PD14_IO8" B R 5800 4450 50 
F51 "PD15_IO9" B R 5800 4525 50 
F52 "PC0_IO10" B R 5800 4600 50 
F53 "PC2_IO11" B R 5800 4675 50 
F54 "PC3_IO12" B R 5800 4750 50 
F55 "PC13_IO13" B R 5800 4825 50 
F56 "PA1_ETH_REF_CLK" I L 4050 4600 50 
F57 "PA2_ETH_MDIO" B L 4050 4775 50 
F58 "PA2_ETH_CRS_DV" B L 4050 4850 50 
F59 "PC4_ETH_RXD0" B L 4050 5100 50 
F60 "PC5_ETH_RXD1" B L 4050 5025 50 
F61 "PC1_ETH_MDC" B L 4050 4700 50 
F62 "PB11_ETH_TX_EN" B L 4050 5200 50 
F63 "PB1_ETH_TXD0" B L 4050 5350 50 
F64 "PB1_ETH_TXD1" B L 4050 5275 50 
F65 "PB10_ETH_RX_ER" B L 4050 4950 50 
$EndSheet
$Sheet
S 1205 1195 1795 1605
U 5F0797FF
F0 "memory" 118
F1 "memory.sch" 79
F2 "FLASH_CLK" I R 3000 2000 50 
F3 "FLASH_MOSI" I R 3000 2125 50 
F4 "FLASH_MISO" O R 3000 2250 50 
F5 "~FLASH_CS" I R 3000 2400 50 
F6 "EEPROM_SDA" B R 3000 1600 50 
F7 "EEPROM_SCL" I R 3000 1475 50 
$EndSheet
$Sheet
S 1170 3625 1830 1185
U 5F047122
F0 "power" 118
F1 "power.sch" 79
$EndSheet
$EndSCHEMATC
