EESchema Schematic File Version 4
EELAYER 30 0
EELAYER END
$Descr A4 11693 8268
encoding utf-8
Sheet 4 6
Title "IZIRUNF4"
Date "2020-07-27"
Rev "A"
Comp "IZITRON"
Comment1 ""
Comment2 ""
Comment3 ""
Comment4 ""
$EndDescr
$Comp
L power:GND #PWR046
U 1 1 5C90DEA4
P 5770 7290
F 0 "#PWR046" H 5770 7040 59  0001 C CIB
F 1 "GND" H 5775 7117 39  0000 C CIB
F 2 "" H 5770 7290 39  0001 C CIB
F 3 "" H 5770 7290 39  0001 C CIB
	1    5770 7290
	1    0    0    -1  
$EndComp
Text Notes 9625 3495 2    118  Italic 24
MCU
Wire Wire Line
	5570 6715 5570 7075
Wire Wire Line
	5870 7075 5870 6715
Wire Wire Line
	805  1420 805  1575
$Comp
L power:GND #PWR?
U 1 1 5C6B7857
P 1165 1625
AR Path="/5C061F84/5C6B7857" Ref="#PWR?"  Part="1" 
AR Path="/5C0272AF/5C6B7857" Ref="#PWR?"  Part="1" 
AR Path="/5EB5BEF3/5C6B7857" Ref="#PWR032"  Part="1" 
F 0 "#PWR032" H 1165 1375 59  0001 C CIB
F 1 "GND" H 1170 1452 39  0000 C CIB
F 2 "" H 1165 1625 39  0001 C CIB
F 3 "" H 1165 1625 39  0001 C CIB
	1    1165 1625
	-1   0    0    -1  
$EndComp
$Comp
L device:C_Small C?
U 1 1 5C6420D9
P 2100 1330
AR Path="/5C061F84/5C6420D9" Ref="C?"  Part="1" 
AR Path="/5C0272AF/5C6420D9" Ref="C?"  Part="1" 
AR Path="/5EB5BEF3/5C6420D9" Ref="C3"  Part="1" 
F 0 "C3" H 1990 1255 59  0000 C CIB
F 1 "18pF" H 2005 1405 39  0000 C CIB
F 2 "Capacitor_SMD:C_0603_1608Metric" H 2100 1330 39  0001 C CIB
F 3 "~" H 2100 1330 39  0001 C CIB
	1    2100 1330
	-1   0    0    1   
$EndComp
Wire Wire Line
	805  965  805  1220
Text Label 3800 2915 2    50   ~ 0
OSC_IN
Text Label 3800 3015 2    50   ~ 0
OSC_OUT
Text Label 7730 6315 0    50   ~ 0
OSC32_IN
Text Label 7730 6415 0    50   ~ 0
OSC32_OUT
$Comp
L device:R_Small R2
U 1 1 5EBA85CC
P 4190 1715
F 0 "R2" V 4085 1715 59  0000 C CIB
F 1 "10K" V 4190 1715 39  0000 C CIB
F 2 "Resistor_SMD:R_0603_1608Metric" H 4190 1715 39  0001 C CIB
F 3 "~" H 4190 1715 39  0001 C CIB
	1    4190 1715
	0    1    1    0   
$EndComp
$Comp
L power:GND #PWR043
U 1 1 5EBAD49D
P 4005 1715
F 0 "#PWR043" H 4005 1465 59  0001 C CIB
F 1 "GND" H 4005 1565 39  0000 C CIB
F 2 "" H 4005 1715 39  0001 C CIB
F 3 "" H 4005 1715 39  0001 C CIB
	1    4005 1715
	0    1    1    0   
$EndComp
Wire Notes Line width 20 style solid
	475  1870 3150 1870
Wire Notes Line width 20 style solid
	3150 1870 3150 475 
$Comp
L power:GND #PWR?
U 1 1 5EF19A6D
P 3520 770
AR Path="/5EF19A6D" Ref="#PWR?"  Part="1" 
AR Path="/5C8F350B/5EF19A6D" Ref="#PWR?"  Part="1" 
AR Path="/5C90C3D3/5EF19A6D" Ref="#PWR?"  Part="1" 
AR Path="/5EB5BEF3/5EF19A6D" Ref="#PWR041"  Part="1" 
F 0 "#PWR041" H 3520 520 59  0001 C CIB
F 1 "GND" V 3520 600 39  0000 C CIB
F 2 "" H 3520 770 39  0001 C CIB
F 3 "" H 3520 770 39  0001 C CIB
	1    3520 770 
	0    1    -1   0   
$EndComp
$Comp
L power:GND #PWR?
U 1 1 5EF1CEF7
P 1100 3215
AR Path="/5EF1CEF7" Ref="#PWR?"  Part="1" 
AR Path="/5C8F350B/5EF1CEF7" Ref="#PWR?"  Part="1" 
AR Path="/5C90C3D3/5EF1CEF7" Ref="#PWR?"  Part="1" 
AR Path="/5EB5BEF3/5EF1CEF7" Ref="#PWR031"  Part="1" 
F 0 "#PWR031" H 1100 2965 59  0001 C CIB
F 1 "GND" V 1095 3040 39  0000 C CIB
F 2 "" H 1100 3215 39  0001 C CIB
F 3 "" H 1100 3215 39  0001 C CIB
	1    1100 3215
	0    1    -1   0   
$EndComp
$Comp
L device:R_Small R3
U 1 1 5EF1CF05
P 1815 2915
F 0 "R3" H 1965 2920 59  0000 C CIB
F 1 "10K" V 1815 2915 39  0000 C CIB
F 2 "Resistor_SMD:R_0603_1608Metric" H 1815 2915 39  0001 C CIB
F 3 "~" H 1815 2915 39  0001 C CIB
	1    1815 2915
	1    0    0    -1  
$EndComp
$Comp
L button_switch:B_Push BT2
U 1 1 5EF1CF16
P 1350 3215
F 0 "BT2" H 1350 3425 59  0000 C CIB
F 1 "BT USER" H 1350 3140 39  0000 C CIB
F 2 "Button_Switch_SMD:SW_SPST_B3U-1000P" H 1350 3215 39  0001 C CIB
F 3 "" H 1350 3215 39  0001 C CIB
F 4 "B3U-1000P" H 1350 3050 39  0000 C CIB "FAB REF"
	1    1350 3215
	1    0    0    -1  
$EndComp
$Comp
L power:+3.3V #PWR033
U 1 1 5EF1CF27
P 1815 2780
F 0 "#PWR033" H 1815 2630 59  0001 C CIB
F 1 "+3.3V" H 1830 2953 39  0000 C CIB
F 2 "" H 1815 2780 39  0001 C CIB
F 3 "" H 1815 2780 39  0001 C CIB
	1    1815 2780
	1    0    0    -1  
$EndComp
Wire Wire Line
	1815 3015 1815 3215
Wire Wire Line
	1815 2780 1815 2815
Connection ~ 1815 3215
Connection ~ 1165 1575
Wire Wire Line
	805  1575 1165 1575
Wire Wire Line
	1165 1625 1165 1575
Wire Wire Line
	1515 965  1515 1225
Wire Wire Line
	1515 1575 1515 1425
Wire Wire Line
	1265 965  1515 965 
Wire Wire Line
	1165 1575 1515 1575
$Comp
L device:C_Small C?
U 1 1 5C6527E4
P 1515 1325
AR Path="/5C061F84/5C6527E4" Ref="C?"  Part="1" 
AR Path="/5C0272AF/5C6527E4" Ref="C?"  Part="1" 
AR Path="/5EB5BEF3/5C6527E4" Ref="C2"  Part="1" 
F 0 "C2" H 1625 1250 59  0000 C CIB
F 1 "6pF" H 1595 1390 39  0000 C CIB
F 2 "Capacitor_SMD:C_0603_1608Metric" H 1515 1325 39  0001 C CIB
F 3 "~" H 1515 1325 39  0001 C CIB
	1    1515 1325
	1    0    0    1   
$EndComp
Wire Wire Line
	805  965  1065 965 
$Comp
L device:Crystal_Small Y1
U 1 1 5C65233E
P 1165 965
F 0 "Y1" H 1165 765 59  0000 C CIB
F 1 "32.786Khz" H 1165 860 39  0000 C CIB
F 2 "MyFootPrint:OSCI_3_2_X1_5" H 1165 965 39  0001 C CIB
F 3 "~" H 1165 965 39  0001 C CIB
F 4 "ABS07-32.768KHZ-T" H 1165 1095 39  0000 C CIB "FAB REF"
F 5 "815-ABS07-32.768KHZT" H 1165 965 39  0001 C CIB "MOUSER"
F 6 "C130253" H 1165 965 39  0001 C CIB "LCSC"
	1    1165 965 
	1    0    0    1   
$EndComp
$Comp
L SamacSys_Parts:ATA6561-GAQW-N U5
U 1 1 5EEE3FCB
P 2315 7225
F 0 "U5" H 2315 7640 59  0000 C CIB
F 1 "ATA6561-GBQW-N" H 2315 7549 39  0000 C CIB
F 2 "MyFootPrint:VDFN-8-1EP_3x3mm_Pitch0.65mm" H 3265 7325 39  0001 C CIB
F 3 "http://ww1.microchip.com/downloads/en/DeviceDoc/ATA6560-ATA6561-High-Speed-CAN-Transceiver-DS20005991A.pdf" H 3265 7225 39  0001 C CIB
F 4 "ATA6561-GAQW-N" H 2315 7225 39  0001 C CIB "REF"
F 5 "579-ATA6561-GAQW-N" H 2315 7225 39  0001 C CIB "MOUSER"
F 6 "C616016" H 2315 7225 39  0001 C CIB "LCSC"
	1    2315 7225
	1    0    0    -1  
$EndComp
$Comp
L power:+3.3V #PWR029
U 1 1 5EEF3F46
P 3460 6905
F 0 "#PWR029" H 3460 6755 59  0001 C CIB
F 1 "+3.3V" H 3475 7078 39  0000 C CIB
F 2 "" H 3460 6905 39  0001 C CIB
F 3 "" H 3460 6905 39  0001 C CIB
	1    3460 6905
	1    0    0    -1  
$EndComp
$Comp
L device:C_Small C24
U 1 1 5EEF836F
P 1130 7225
F 0 "C24" H 1245 7310 59  0000 C CIB
F 1 "100nF" H 1255 7145 39  0000 C CIB
F 2 "Capacitor_SMD:C_0603_1608Metric" H 1130 7225 39  0001 C CIB
F 3 "~" H 1130 7225 39  0001 C CIB
	1    1130 7225
	1    0    0    -1  
$EndComp
$Comp
L power:GND #PWR030
U 1 1 5EEFA26F
P 1130 7520
F 0 "#PWR030" H 1130 7270 59  0001 C CIB
F 1 "GND" H 1130 7370 39  0000 C CIB
F 2 "" H 1130 7520 39  0001 C CIB
F 3 "" H 1130 7520 39  0001 C CIB
	1    1130 7520
	1    0    0    -1  
$EndComp
Wire Wire Line
	1130 6915 1130 7010
Wire Wire Line
	1130 7325 1130 7450
Wire Wire Line
	1765 7075 1765 7010
Wire Wire Line
	1765 7010 1130 7010
Connection ~ 1130 7010
Wire Wire Line
	1130 7010 1130 7125
Wire Wire Line
	1765 7375 1765 7450
Wire Wire Line
	1765 7450 1130 7450
Connection ~ 1130 7450
Wire Wire Line
	1130 7450 1130 7520
Wire Wire Line
	1765 7175 1710 7175
Text Label 1710 7275 2    50   ~ 0
CAN_RX
Wire Wire Line
	1765 7275 1710 7275
Wire Wire Line
	2865 7175 2960 7175
Wire Wire Line
	2865 7275 2965 7275
Text HLabel 2960 7175 2    50   UnSpc ~ 0
CAN_H
Text HLabel 2965 7275 2    50   UnSpc ~ 0
CAN_L
Text Label 7765 2615 0    50   ~ 0
CAN_RX
Text Notes 2615 6730 2    79   Italic 16
CAN BUS
Text HLabel 4605 1515 0    50   Input ~ 0
NRST
Text HLabel 6940 1515 2    50   Input ~ 0
PA0_WKUP
Wire Wire Line
	6670 1515 6940 1515
Text HLabel 6940 2315 2    50   Output ~ 0
PA8_I2C3_SCL
Text HLabel 6940 5815 2    50   BiDi ~ 0
PC9_I2C3_SDA
Wire Wire Line
	6670 2315 6940 2315
Text HLabel 6940 5915 2    50   Output ~ 0
PC10_SPI3_SCK
Wire Wire Line
	6670 5915 6940 5915
Text HLabel 6940 6015 2    50   Input ~ 0
PC11_SPI3_MISO
Text HLabel 6940 6115 2    50   Output ~ 0
PC12_SPI3_MOSI
Wire Wire Line
	6940 6015 6670 6015
Wire Wire Line
	6670 6115 6940 6115
Text HLabel 6940 3015 2    50   Output ~ 0
PA15_SPI3_CS
Wire Wire Line
	6940 3015 6670 3015
Wire Wire Line
	6670 5815 6940 5815
Text HLabel 6940 2415 2    50   Output ~ 0
PA9_UART1_TX
Wire Wire Line
	6670 2415 6940 2415
Text HLabel 6940 2515 2    50   Input ~ 0
PA10_UART1_RX
Wire Wire Line
	6670 2515 6940 2515
Wire Wire Line
	6670 3815 6945 3815
Text HLabel 6945 3915 2    50   BiDi ~ 0
PB7_I2C1_SDA
Wire Wire Line
	6945 3915 6670 3915
Text HLabel 6940 3515 2    50   Output ~ 0
PB3_SPI1_SCK
Wire Wire Line
	6670 3515 6940 3515
Text HLabel 6940 3615 2    50   Input ~ 0
PB4_SPI1_MISO
Text HLabel 6940 3715 2    50   Output ~ 0
PB5_SPI1_MOSI
Wire Wire Line
	6670 3615 6940 3615
Wire Wire Line
	6670 3715 6940 3715
Text HLabel 6940 3415 2    50   Output ~ 0
PB2_SPI1_CS1
Wire Wire Line
	6670 3415 6940 3415
Text HLabel 4600 3915 0    50   Output ~ 0
PC1_SPI1_CS2
Wire Wire Line
	4600 3915 4870 3915
Text HLabel 6940 1815 2    50   Input ~ 0
PA3_ADC_IN3
Text HLabel 6940 2115 2    50   Input ~ 0
PA6_ADC_IN6
Wire Wire Line
	6670 1815 6940 1815
Wire Wire Line
	6940 2115 6670 2115
Text HLabel 4600 4115 0    50   Output ~ 0
PE9_TIM1_CH1
Wire Wire Line
	4600 4115 4870 4115
$Comp
L device:C_Small C5
U 1 1 5EF3A576
P 4130 960
F 0 "C5" H 4245 1045 59  0000 C CIB
F 1 "100nF" H 4260 885 39  0000 C CIB
F 2 "Capacitor_SMD:C_0603_1608Metric" H 4130 960 39  0001 C CIB
F 3 "~" H 4130 960 39  0001 C CIB
	1    4130 960 
	1    0    0    -1  
$EndComp
$Comp
L power:GND #PWR045
U 1 1 5EF4DE03
P 4130 1085
F 0 "#PWR045" H 4130 835 59  0001 C CIB
F 1 "GND" H 4130 935 39  0000 C CIB
F 2 "" H 4130 1085 39  0001 C CIB
F 3 "" H 4130 1085 39  0001 C CIB
	1    4130 1085
	1    0    0    -1  
$EndComp
Wire Wire Line
	4130 1060 4130 1085
Wire Wire Line
	1815 3495 1815 3520
$Comp
L power:GND #PWR034
U 1 1 5EF51B8C
P 1815 3520
F 0 "#PWR034" H 1815 3270 59  0001 C CIB
F 1 "GND" H 1815 3370 39  0000 C CIB
F 2 "" H 1815 3520 39  0001 C CIB
F 3 "" H 1815 3520 39  0001 C CIB
	1    1815 3520
	1    0    0    -1  
$EndComp
$Comp
L device:C_Small C6
U 1 1 5EF51B9A
P 1815 3395
F 0 "C6" H 1930 3480 59  0000 C CIB
F 1 "100nF" H 1940 3320 39  0000 C CIB
F 2 "Capacitor_SMD:C_0603_1608Metric" H 1815 3395 39  0001 C CIB
F 3 "~" H 1815 3395 39  0001 C CIB
	1    1815 3395
	1    0    0    -1  
$EndComp
Wire Wire Line
	1815 3295 1815 3215
Text HLabel 4600 4915 0    50   BiDi ~ 0
PD0_IO14
Text HLabel 6940 2815 2    50   BiDi ~ 0
PA13_SYS_SWDIO
Text HLabel 6940 2915 2    50   Input ~ 0
PA14_SYS_SWCLK
Wire Wire Line
	6670 2815 6940 2815
Wire Wire Line
	6940 2915 6670 2915
Wire Wire Line
	4870 4915 4600 4915
Text Notes 1950 670  2    79   Italic 16
OSC
$Comp
L device:C_Small C?
U 1 1 5C65286C
P 805 1320
AR Path="/5C061F84/5C65286C" Ref="C?"  Part="1" 
AR Path="/5C0272AF/5C65286C" Ref="C?"  Part="1" 
AR Path="/5EB5BEF3/5C65286C" Ref="C1"  Part="1" 
F 0 "C1" H 915 1245 59  0000 C CIB
F 1 "6pF" H 880 1390 39  0000 C CIB
F 2 "Capacitor_SMD:C_0603_1608Metric" H 805 1320 39  0001 C CIB
F 3 "~" H 805 1320 39  0001 C CIB
	1    805  1320
	1    0    0    1   
$EndComp
Text Label 805  965  1    50   ~ 0
OSC32_IN
Text Label 1515 965  1    50   ~ 0
OSC32_OUT
Wire Wire Line
	2855 1230 2855 970 
Wire Wire Line
	2855 970  2590 970 
Wire Wire Line
	2100 970  2100 1230
Wire Wire Line
	2390 970  2100 970 
Wire Wire Line
	2100 1430 2100 1580
Wire Wire Line
	2855 1580 2490 1580
Wire Wire Line
	2855 1430 2855 1580
Wire Wire Line
	2490 1580 2100 1580
Wire Wire Line
	2490 1630 2490 1580
NoConn ~ 2490 1070
Connection ~ 2490 1580
$Comp
L device:Crystal_GND2_Small Y2
U 1 1 5F3D905B
P 2490 970
F 0 "Y2" H 2490 1175 59  0000 C CIB
F 1 "24MHz" H 2490 1075 39  0000 C CIB
F 2 "MyFootPrint:OSC_4P_2x1_6" H 2490 970 39  0001 C CIB
F 3 "~" H 2490 970 39  0001 C CIB
F 4 "XRCGB24M000F3M00R0" H 2500 810 39  0000 C CIB "FAB REF"
F 5 "81-XRCGB24M000F3G0R0" H 2490 970 39  0001 C CIB "MOUSER"
F 6 "C127895" H 2490 970 39  0001 C CIB "LCSC"
	1    2490 970 
	1    0    0    -1  
$EndComp
$Comp
L power:GND #PWR?
U 1 1 5C6420E0
P 2490 1630
AR Path="/5C061F84/5C6420E0" Ref="#PWR?"  Part="1" 
AR Path="/5C0272AF/5C6420E0" Ref="#PWR?"  Part="1" 
AR Path="/5EB5BEF3/5C6420E0" Ref="#PWR035"  Part="1" 
F 0 "#PWR035" H 2490 1380 59  0001 C CIB
F 1 "GND" H 2495 1457 39  0000 C CIB
F 2 "" H 2490 1630 39  0001 C CIB
F 3 "" H 2490 1630 39  0001 C CIB
	1    2490 1630
	-1   0    0    -1  
$EndComp
$Comp
L device:C_Small C?
U 1 1 5C6420D2
P 2855 1330
AR Path="/5C061F84/5C6420D2" Ref="C?"  Part="1" 
AR Path="/5C0272AF/5C6420D2" Ref="C?"  Part="1" 
AR Path="/5EB5BEF3/5C6420D2" Ref="C4"  Part="1" 
F 0 "C4" H 2735 1250 59  0000 C CIB
F 1 "18pF" H 2755 1410 39  0000 C CIB
F 2 "Capacitor_SMD:C_0603_1608Metric" H 2855 1330 39  0001 C CIB
F 3 "~" H 2855 1330 39  0001 C CIB
	1    2855 1330
	-1   0    0    1   
$EndComp
Text Label 2100 970  1    50   ~ 0
OSC_IN
Text Label 2855 970  1    50   ~ 0
OSC_OUT
$Comp
L device:Ferrite_Bead_Small L1
U 1 1 5C90C759
P 6535 1070
F 0 "L1" V 6455 985 59  0000 C CIB
F 1 "FCB" V 6605 1160 39  0000 C CIB
F 2 "Inductor_SMD:L_0603_1608Metric" V 6465 1070 39  0001 C CIB
F 3 "~" H 6535 1070 39  0001 C CIB
F 4 "81-BLM18PG121SN1D" H 6535 1070 39  0001 C CIB "MOUSER"
F 5 "C14709" H 6535 1070 39  0001 C CIB "LCSC"
F 6 "BLM18PG121SN1D" V 6695 1095 39  0000 C CIB "FAB REF"
	1    6535 1070
	0    1    1    0   
$EndComp
Wire Wire Line
	9165 900  9165 770 
Wire Wire Line
	8415 770  8790 770 
Wire Wire Line
	9515 900  9515 770 
Wire Wire Line
	9515 770  9890 770 
Wire Wire Line
	9165 770  9515 770 
Wire Wire Line
	9165 1100 9165 1220
Wire Wire Line
	8570 1295 8570 1220
Wire Wire Line
	8790 1220 9165 1220
Wire Wire Line
	9890 1220 9890 1100
Wire Wire Line
	9515 1220 9890 1220
Wire Wire Line
	8790 1100 8790 1220
Wire Wire Line
	9165 1220 9515 1220
Wire Wire Line
	9515 1100 9515 1220
Wire Wire Line
	8415 1100 8415 1220
Wire Wire Line
	9890 770  9890 900 
Wire Wire Line
	8415 900  8415 770 
Wire Wire Line
	8790 770  9165 770 
Wire Wire Line
	8415 1220 8570 1220
Wire Wire Line
	8790 900  8790 770 
Connection ~ 9165 1220
Connection ~ 8790 1220
Connection ~ 8790 770 
Connection ~ 9165 770 
Connection ~ 8415 770 
Connection ~ 9515 1220
Connection ~ 9515 770 
$Comp
L power:GND #PWR048
U 1 1 5C90CE2F
P 8570 1295
F 0 "#PWR048" H 8570 1045 59  0001 C CIB
F 1 "GND" H 8575 1122 39  0000 C CIB
F 2 "" H 8570 1295 39  0001 C CIB
F 3 "" H 8570 1295 39  0001 C CIB
	1    8570 1295
	1    0    0    -1  
$EndComp
$Comp
L device:C_Small C18
U 1 1 5C90C6CE
P 9515 1000
F 0 "C18" H 9625 1085 59  0000 C CIB
F 1 "100nF" H 9630 925 39  0000 C CIB
F 2 "Capacitor_SMD:C_0603_1608Metric" H 9515 1000 39  0001 C CIB
F 3 "~" H 9515 1000 39  0001 C CIB
	1    9515 1000
	1    0    0    -1  
$EndComp
$Comp
L device:C_Small C16
U 1 1 5C90C682
P 8790 1000
F 0 "C16" H 8910 1085 59  0000 C CIB
F 1 "100nF" H 8905 925 39  0000 C CIB
F 2 "Capacitor_SMD:C_0603_1608Metric" H 8790 1000 39  0001 C CIB
F 3 "~" H 8790 1000 39  0001 C CIB
	1    8790 1000
	1    0    0    -1  
$EndComp
$Comp
L device:C_Small C15
U 1 1 5C90C5D8
P 8415 1000
F 0 "C15" H 8525 1085 59  0000 C CIB
F 1 "100nF" H 8530 925 39  0000 C CIB
F 2 "Capacitor_SMD:C_0603_1608Metric" H 8415 1000 39  0001 C CIB
F 3 "~" H 8415 1000 39  0001 C CIB
	1    8415 1000
	1    0    0    -1  
$EndComp
$Comp
L device:C_Small C17
U 1 1 5C90C69E
P 9165 1000
F 0 "C17" H 9275 1085 59  0000 C CIB
F 1 "100nF" H 9275 925 39  0000 C CIB
F 2 "Capacitor_SMD:C_0603_1608Metric" H 9165 1000 39  0001 C CIB
F 3 "~" H 9165 1000 39  0001 C CIB
	1    9165 1000
	1    0    0    -1  
$EndComp
$Comp
L device:C_Small C19
U 1 1 5C90C6F9
P 9890 1000
F 0 "C19" H 10005 1085 59  0000 C CIB
F 1 "100nF" H 10010 925 39  0000 C CIB
F 2 "Capacitor_SMD:C_0603_1608Metric" H 9890 1000 39  0001 C CIB
F 3 "~" H 9890 1000 39  0001 C CIB
	1    9890 1000
	1    0    0    -1  
$EndComp
Wire Wire Line
	5870 7075 5970 7075
Wire Wire Line
	5970 7075 5970 6715
Connection ~ 5870 7075
Wire Wire Line
	5770 7290 5770 7075
Wire Wire Line
	5570 7075 5670 7075
Wire Wire Line
	5670 6715 5670 7075
Wire Wire Line
	5670 7075 5770 7075
Wire Wire Line
	5770 7075 5870 7075
Wire Wire Line
	5770 6715 5770 7075
Connection ~ 5770 7075
Connection ~ 5670 7075
Wire Wire Line
	1815 3215 4870 3215
Text HLabel 6945 3815 2    50   Output ~ 0
PB6_I2C1_SCL
Wire Wire Line
	6670 1915 6940 1915
Text HLabel 6940 1915 2    50   Output ~ 0
PA4_SPI1_CS0
Text HLabel 6940 4615 2    50   BiDi ~ 0
PB14_USB_DM
Wire Wire Line
	6670 4615 6940 4615
Text HLabel 6940 4715 2    50   BiDi ~ 0
PB15_USB_DP
Wire Wire Line
	6670 4715 6940 4715
Text Label 7765 2715 0    50   ~ 0
CAN_TX
Wire Wire Line
	4870 3315 3755 3315
$Comp
L device:R_Small R?
U 1 1 5F08EEFE
P 3655 3315
AR Path="/5F08EEFE" Ref="R?"  Part="1" 
AR Path="/5C8F350B/5F08EEFE" Ref="R?"  Part="1" 
AR Path="/5C90C3D3/5F08EEFE" Ref="R?"  Part="1" 
AR Path="/5EB5BEF3/5F08EEFE" Ref="R4"  Part="1" 
F 0 "R4" V 3750 3315 59  0000 C CIB
F 1 "750" V 3655 3315 39  0000 C CIB
F 2 "Resistor_SMD:R_0603_1608Metric" H 3655 3315 39  0001 C CIB
F 3 "~" H 3655 3315 39  0001 C CIB
	1    3655 3315
	0    1    1    0   
$EndComp
Wire Wire Line
	2940 3315 2755 3315
Wire Wire Line
	3555 3315 3140 3315
$Comp
L device:LED_Small D?
U 1 1 5F08EEFF
P 3040 3315
AR Path="/5C8F350B/5F08EEFF" Ref="D?"  Part="1" 
AR Path="/5C90C3D3/5F08EEFF" Ref="D?"  Part="1" 
AR Path="/5EB5BEF3/5F08EEFF" Ref="D1"  Part="1" 
F 0 "D1" H 3040 3455 59  0000 C CIB
F 1 "GREEN 2mA" H 3040 3560 39  0000 C CIB
F 2 "LED_SMD:LED_0805_2012Metric" V 3040 3315 39  0001 C CIB
F 3 "~" V 3040 3315 39  0001 C CIB
F 4 "2217981" H 3040 3315 39  0001 C CIB "FARNELL"
F 5 "KPT-2012ZGC" H 3040 3625 39  0000 C CIB "FAB REF"
F 6 "C598372" H 3040 3315 39  0001 C CIB "LCSC"
	1    3040 3315
	1    0    0    1   
$EndComp
$Comp
L power:GND #PWR?
U 1 1 5F08EF00
P 2755 3315
AR Path="/5F08EF00" Ref="#PWR?"  Part="1" 
AR Path="/5C8F350B/5F08EF00" Ref="#PWR?"  Part="1" 
AR Path="/5C90C3D3/5F08EF00" Ref="#PWR?"  Part="1" 
AR Path="/5EB5BEF3/5F08EF00" Ref="#PWR036"  Part="1" 
F 0 "#PWR036" H 2755 3065 59  0001 C CIB
F 1 "GND" V 2755 3140 39  0000 C CIB
F 2 "" H 2755 3315 39  0001 C CIB
F 3 "" H 2755 3315 39  0001 C CIB
	1    2755 3315
	0    1    1    0   
$EndComp
$Comp
L MCU_ST_STM32F4:STM32F407VETx U1
U 1 1 5F3B0FC6
P 5770 3915
F 0 "U1" H 5135 6505 59  0000 C CIB
F 1 "STM32F407VETx" H 5780 3915 50  0000 C CNN
F 2 "Package_QFP:LQFP-100_14x14mm_P0.5mm" H 5070 1315 50  0001 R CNN
F 3 "http://www.st.com/st-web-ui/static/active/en/resource/technical/document/datasheet/DM00037051.pdf" H 5770 3915 50  0001 C CNN
	1    5770 3915
	1    0    0    -1  
$EndComp
Text Label 1710 7175 2    50   ~ 0
CAN_TX
Wire Wire Line
	3460 7450 3460 7530
Wire Wire Line
	3460 7325 3460 7450
Wire Wire Line
	2865 7375 2865 7450
Wire Wire Line
	2865 7010 3460 7010
Wire Wire Line
	2865 7450 3460 7450
Wire Wire Line
	3460 7010 3460 7125
Wire Wire Line
	2865 7075 2865 7010
Wire Wire Line
	3460 6905 3460 7010
$Comp
L power:GND #PWR038
U 1 1 5EF042C8
P 3460 7530
F 0 "#PWR038" H 3460 7280 59  0001 C CIB
F 1 "GND" H 3460 7380 39  0000 C CIB
F 2 "" H 3460 7530 39  0001 C CIB
F 3 "" H 3460 7530 39  0001 C CIB
	1    3460 7530
	1    0    0    -1  
$EndComp
$Comp
L device:C_Small C25
U 1 1 5EF017D3
P 3460 7225
F 0 "C25" H 3575 7310 59  0000 C CIB
F 1 "100nF" H 3590 7150 39  0000 C CIB
F 2 "Capacitor_SMD:C_0603_1608Metric" H 3460 7225 39  0001 C CIB
F 3 "~" H 3460 7225 39  0001 C CIB
	1    3460 7225
	1    0    0    -1  
$EndComp
$Comp
L power:+5V #PWR037
U 1 1 5EF7E052
P 1130 6915
F 0 "#PWR037" H 1130 6765 59  0001 C CIB
F 1 "+5V" H 1145 7088 39  0000 C CIB
F 2 "" H 1130 6915 39  0001 C CIB
F 3 "" H 1130 6915 39  0001 C CIB
	1    1130 6915
	1    0    0    -1  
$EndComp
Connection ~ 3460 7010
Connection ~ 3460 7450
Wire Wire Line
	5820 770  5870 770 
Wire Wire Line
	5820 750  5820 770 
$Comp
L power:+3.3V #PWR047
U 1 1 5C912AEA
P 5820 750
F 0 "#PWR047" H 5820 600 59  0001 C CIB
F 1 "+3.3V" H 5835 923 39  0000 C CIB
F 2 "" H 5820 750 39  0001 C CIB
F 3 "" H 5820 750 39  0001 C CIB
	1    5820 750 
	1    0    0    -1  
$EndComp
Wire Wire Line
	5470 1215 5470 770 
Wire Wire Line
	5470 770  5570 770 
Connection ~ 5820 770 
Wire Wire Line
	5570 1215 5570 770 
Connection ~ 5570 770 
Wire Wire Line
	5570 770  5670 770 
Wire Wire Line
	5670 1215 5670 770 
Connection ~ 5670 770 
Wire Wire Line
	5670 770  5770 770 
Wire Wire Line
	5770 1215 5770 770 
Connection ~ 5770 770 
Wire Wire Line
	5770 770  5820 770 
Wire Wire Line
	5870 1215 5870 770 
Connection ~ 5870 770 
Wire Wire Line
	5870 770  5970 770 
Wire Wire Line
	5970 1215 5970 770 
Connection ~ 5970 770 
Wire Wire Line
	5970 770  6070 770 
Wire Wire Line
	6070 1215 6070 770 
Connection ~ 6070 770 
Wire Wire Line
	6070 770  6830 770 
Wire Wire Line
	6170 1215 6170 1070
Wire Wire Line
	6170 1070 6435 1070
Wire Wire Line
	6635 1070 6830 1070
Wire Wire Line
	6830 1070 6830 770 
Connection ~ 6830 770 
Wire Wire Line
	6830 770  7360 770 
Connection ~ 7735 1220
Wire Wire Line
	8110 1090 8110 1220
Wire Wire Line
	7735 1220 8110 1220
Wire Wire Line
	7735 1095 7735 1220
$Comp
L device:C_Small C14
U 1 1 5F404507
P 8110 990
F 0 "C14" H 8220 1065 59  0000 C CIB
F 1 "100nF" H 8220 915 39  0000 C CIB
F 2 "Capacitor_SMD:C_0603_1608Metric" H 8110 990 39  0001 C CIB
F 3 "~" H 8110 990 39  0001 C CIB
	1    8110 990 
	1    0    0    -1  
$EndComp
$Comp
L device:C_Small C13
U 1 1 5F404518
P 7735 995
F 0 "C13" H 7845 1075 59  0000 C CIB
F 1 "100nF" H 7850 920 39  0000 C CIB
F 2 "Capacitor_SMD:C_0603_1608Metric" H 7735 995 39  0001 C CIB
F 3 "~" H 7735 995 39  0001 C CIB
	1    7735 995 
	1    0    0    -1  
$EndComp
Wire Wire Line
	7360 1220 7735 1220
Wire Wire Line
	7360 1090 7360 1220
Wire Wire Line
	8110 1220 8415 1220
Connection ~ 8110 1220
Connection ~ 8415 1220
Connection ~ 8570 1220
Wire Wire Line
	8570 1220 8790 1220
Wire Wire Line
	8110 890  8110 770 
Connection ~ 8110 770 
Wire Wire Line
	8110 770  8415 770 
Wire Wire Line
	7735 895  7735 770 
Connection ~ 7735 770 
Wire Wire Line
	7735 770  8110 770 
Wire Wire Line
	7360 890  7360 770 
Connection ~ 7360 770 
Wire Wire Line
	7360 770  7735 770 
$Comp
L power:+3.3V #PWR040
U 1 1 5F407604
P 3420 1975
F 0 "#PWR040" H 3420 1825 59  0001 C CIB
F 1 "+3.3V" H 3435 2148 39  0000 C CIB
F 2 "" H 3420 1975 39  0001 C CIB
F 3 "" H 3420 1975 39  0001 C CIB
	1    3420 1975
	1    0    0    -1  
$EndComp
$Comp
L device:C_Small C20
U 1 1 5F40B9CC
P 4575 1915
F 0 "C20" V 4520 2015 59  0000 C CIB
F 1 "2.2uF" V 4615 2055 39  0000 C CIB
F 2 "Capacitor_SMD:C_0603_1608Metric" H 4575 1915 39  0001 C CIB
F 3 "~" H 4575 1915 39  0001 C CIB
	1    4575 1915
	0    1    1    0   
$EndComp
$Comp
L device:C_Small C21
U 1 1 5F40F9F3
P 4225 2015
F 0 "C21" V 4175 2115 59  0000 C CIB
F 1 "2.2uF" V 4265 2155 39  0000 C CIB
F 2 "Capacitor_SMD:C_0603_1608Metric" H 4225 2015 39  0001 C CIB
F 3 "~" H 4225 2015 39  0001 C CIB
	1    4225 2015
	0    1    1    0   
$EndComp
Wire Wire Line
	4870 1915 4675 1915
Wire Wire Line
	4870 2015 4325 2015
$Comp
L power:GND #PWR044
U 1 1 5F4117A9
P 4005 1970
F 0 "#PWR044" H 4005 1720 59  0001 C CIB
F 1 "GND" V 4005 1800 39  0000 C CIB
F 2 "" H 4005 1970 39  0001 C CIB
F 3 "" H 4005 1970 39  0001 C CIB
	1    4005 1970
	0    1    1    0   
$EndComp
Wire Wire Line
	4125 2015 4005 2015
Wire Wire Line
	4005 2015 4005 1970
Wire Wire Line
	4475 1915 4005 1915
Wire Wire Line
	4005 1915 4005 1970
Connection ~ 4005 1970
$Comp
L device:C_Small C22
U 1 1 5F415B05
P 3285 2285
F 0 "C22" H 3360 2360 59  0000 C CIB
F 1 "100nF" H 3400 2210 39  0000 C CIB
F 2 "Capacitor_SMD:C_0603_1608Metric" H 3285 2285 39  0001 C CIB
F 3 "~" H 3285 2285 39  0001 C CIB
	1    3285 2285
	1    0    0    -1  
$EndComp
$Comp
L device:C_Small C23
U 1 1 5F41719A
P 3545 2285
F 0 "C23" H 3630 2360 59  0000 C CIB
F 1 "2.2uF" H 3660 2210 39  0000 C CIB
F 2 "Capacitor_SMD:C_0603_1608Metric" H 3545 2285 39  0001 C CIB
F 3 "~" H 3545 2285 39  0001 C CIB
	1    3545 2285
	1    0    0    -1  
$EndComp
Wire Wire Line
	4870 2115 3545 2115
Wire Wire Line
	3285 2115 3285 2185
Wire Wire Line
	3545 2185 3545 2115
Connection ~ 3545 2115
Wire Wire Line
	3545 2115 3420 2115
Wire Wire Line
	3420 1975 3420 2115
Connection ~ 3420 2115
Wire Wire Line
	3420 2115 3285 2115
$Comp
L power:GND #PWR039
U 1 1 5F41C808
P 3415 2485
F 0 "#PWR039" H 3415 2235 59  0001 C CIB
F 1 "GND" H 3420 2312 39  0000 C CIB
F 2 "" H 3415 2485 39  0001 C CIB
F 3 "" H 3415 2485 39  0001 C CIB
	1    3415 2485
	1    0    0    -1  
$EndComp
Wire Wire Line
	3285 2385 3285 2440
Wire Wire Line
	3285 2440 3415 2440
Wire Wire Line
	3545 2440 3545 2385
Wire Wire Line
	3415 2485 3415 2440
Connection ~ 3415 2440
Wire Wire Line
	3415 2440 3545 2440
Wire Wire Line
	4290 1715 4675 1715
Text HLabel 4605 1655 0    50   Input ~ 0
BOOT
Wire Wire Line
	4605 1655 4675 1655
Wire Wire Line
	4675 1655 4675 1715
Connection ~ 4675 1715
Wire Wire Line
	4675 1715 4870 1715
Wire Wire Line
	4090 1715 4005 1715
$Comp
L device:R_Small R1
U 1 1 5CC80C9E
P 5115 770
F 0 "R1" V 5015 770 59  0000 C CIB
F 1 "10K" V 5115 770 39  0000 C CIB
F 2 "Resistor_SMD:R_0603_1608Metric" H 5115 770 39  0001 C CIB
F 3 "~" H 5115 770 39  0001 C CIB
	1    5115 770 
	0    1    1    0   
$EndComp
Wire Wire Line
	5470 770  5215 770 
Connection ~ 5470 770 
$Comp
L button_switch:B_Push BT1
U 1 1 5CC80DF5
P 3770 770
F 0 "BT1" H 3770 985 59  0000 C CIB
F 1 "BT RESET" H 3770 700 39  0000 C CIB
F 2 "Button_Switch_SMD:SW_SPST_B3U-1000P" H 3770 770 39  0001 C CIB
F 3 "" H 3770 770 39  0001 C CIB
F 4 "B3U-1000P" H 3770 615 39  0000 C CIB "FAB REF"
	1    3770 770 
	1    0    0    -1  
$EndComp
Wire Wire Line
	4020 770  4130 770 
Wire Wire Line
	4130 770  4130 860 
Connection ~ 4130 770 
Wire Wire Line
	4130 770  4675 770 
Wire Wire Line
	4870 1515 4675 1515
Wire Wire Line
	4675 1515 4675 770 
Connection ~ 4675 1515
Wire Wire Line
	4675 1515 4605 1515
Connection ~ 4675 770 
Wire Wire Line
	4675 770  5015 770 
Wire Wire Line
	1600 3215 1815 3215
NoConn ~ 4870 3415
NoConn ~ 4870 3515
NoConn ~ 4870 3615
NoConn ~ 4870 3715
NoConn ~ 4870 3815
Text HLabel 4600 5015 0    50   BiDi ~ 0
PD1_IO15
Wire Wire Line
	4870 5015 4600 5015
Wire Wire Line
	4870 5115 4600 5115
Text HLabel 4600 5115 0    50   BiDi ~ 0
PD2_IO16
Text HLabel 4600 5215 0    50   BiDi ~ 0
PD3_IO17
Wire Wire Line
	4870 5215 4600 5215
Text HLabel 4600 5315 0    50   BiDi ~ 0
PD4_IO18
Wire Wire Line
	4870 5315 4600 5315
Text HLabel 4600 5915 0    50   BiDi ~ 0
PD10_IO19
Wire Wire Line
	4870 5915 4600 5915
Text HLabel 4600 6015 0    50   BiDi ~ 0
PD11_IO20
Wire Wire Line
	4870 6015 4600 6015
Wire Wire Line
	4600 4315 4870 4315
Text HLabel 4600 4315 0    50   Output ~ 0
PE11_TIM1_CH2
Wire Wire Line
	4600 4515 4870 4515
Text HLabel 4600 4515 0    50   Output ~ 0
PE13_TIM1_CH3
Wire Wire Line
	6940 5515 6670 5515
Text HLabel 6940 5515 2    50   Output ~ 0
PC6_TIM8_CH1
Wire Wire Line
	6940 5615 6670 5615
Text HLabel 6940 5615 2    50   Output ~ 0
PC7_TIM8_CH2
Wire Wire Line
	6940 5715 6670 5715
Text HLabel 6940 5715 2    50   Output ~ 0
PC8_TIM8_CH3
Text HLabel 4600 4015 0    50   BiDi ~ 0
PE8_IO0
Wire Wire Line
	4870 4015 4600 4015
Text HLabel 4600 4215 0    50   BiDi ~ 0
PE10_IO1
Wire Wire Line
	4870 4215 4600 4215
Text HLabel 4600 4415 0    50   BiDi ~ 0
PE12_IO2
Wire Wire Line
	4870 4415 4600 4415
Text HLabel 6940 2015 2    50   BiDi ~ 0
PA5_IO3
Wire Wire Line
	6670 2015 6940 2015
Text HLabel 6940 3215 2    50   BiDi ~ 0
PB0_IO4
Wire Wire Line
	6670 3215 6940 3215
Text HLabel 6940 3315 2    50   BiDi ~ 0
PB1_IO5
Wire Wire Line
	6670 3315 6940 3315
Text HLabel 4600 6115 0    50   BiDi ~ 0
PD12_IO6
Wire Wire Line
	4870 6115 4600 6115
Wire Notes Line width 20 style solid
	4235 7795 4235 6585
Wire Notes Line width 20 style solid
	4235 6585 475  6585
Text HLabel 4600 6215 0    50   BiDi ~ 0
PD13_IO7
Wire Wire Line
	4870 6215 4600 6215
Text HLabel 4600 6315 0    50   BiDi ~ 0
PD14_IO8
Wire Wire Line
	4870 6315 4600 6315
Wire Wire Line
	4870 6415 4600 6415
Text HLabel 4600 6415 0    50   BiDi ~ 0
PD15_IO9
Wire Wire Line
	6670 4915 6940 4915
Text HLabel 6940 4915 2    50   BiDi ~ 0
PC0_IO10
Wire Wire Line
	6670 5115 6940 5115
Text HLabel 6940 5115 2    50   BiDi ~ 0
PC2_IO11
Wire Wire Line
	6670 5215 6940 5215
Text HLabel 6940 5215 2    50   BiDi ~ 0
PC3_IO12
Text HLabel 6940 6215 2    50   BiDi ~ 0
PC13_IO13
Wire Wire Line
	6670 6215 6940 6215
Wire Wire Line
	6670 2715 7765 2715
Wire Wire Line
	6670 2615 7765 2615
Wire Wire Line
	6670 6315 7730 6315
Wire Wire Line
	6670 6415 7730 6415
Wire Wire Line
	3800 2915 4870 2915
Wire Wire Line
	3800 3015 4870 3015
Wire Wire Line
	6670 1615 6940 1615
Text HLabel 6940 1615 2    50   Input ~ 0
PA1_ETH_REF_CLK
Text HLabel 6940 1715 2    50   BiDi ~ 0
PA2_ETH_MDIO
Wire Wire Line
	6670 1715 6940 1715
Text HLabel 6940 2215 2    50   BiDi ~ 0
PA2_ETH_CRS_DV
Wire Wire Line
	6670 2215 6940 2215
Text HLabel 6940 5315 2    50   BiDi ~ 0
PC4_ETH_RXD0
Wire Wire Line
	6670 5315 6940 5315
Text HLabel 6940 5415 2    50   BiDi ~ 0
PC5_ETH_RXD1
Wire Wire Line
	6670 5415 6940 5415
Text HLabel 6940 5015 2    50   BiDi ~ 0
PC1_ETH_MDC
Wire Wire Line
	6670 5015 6940 5015
Text HLabel 6940 4315 2    50   BiDi ~ 0
PB11_ETH_TX_EN
Wire Wire Line
	6670 4315 6940 4315
Text HLabel 6940 4415 2    50   BiDi ~ 0
PB1_ETH_TXD0
Wire Wire Line
	6670 4415 6940 4415
Text HLabel 6940 4515 2    50   BiDi ~ 0
PB1_ETH_TXD1
Wire Wire Line
	6670 4515 6940 4515
NoConn ~ 6670 4015
NoConn ~ 6670 4115
NoConn ~ 4870 4615
NoConn ~ 4870 4715
NoConn ~ 4870 5415
NoConn ~ 4870 5515
NoConn ~ 4870 5615
NoConn ~ 4870 5715
NoConn ~ 4870 5815
Wire Wire Line
	6670 4215 6940 4215
Text HLabel 6940 4215 2    50   BiDi ~ 0
PB10_ETH_RX_ER
$Comp
L device:C_Small C12
U 1 1 5F4044F6
P 7360 990
F 0 "C12" H 7470 1065 59  0000 C CIB
F 1 "100nF" H 7475 915 39  0000 C CIB
F 2 "Capacitor_SMD:C_0603_1608Metric" H 7360 990 39  0001 C CIB
F 3 "~" H 7360 990 39  0001 C CIB
	1    7360 990 
	1    0    0    -1  
$EndComp
$Comp
L power:GND #PWR0101
U 1 1 5F4C529C
P 2315 7575
F 0 "#PWR0101" H 2315 7325 59  0001 C CIB
F 1 "GND" H 2315 7425 39  0000 C CIB
F 2 "" H 2315 7575 39  0001 C CIB
F 3 "" H 2315 7575 39  0001 C CIB
	1    2315 7575
	1    0    0    -1  
$EndComp
$EndSCHEMATC
