EESchema Schematic File Version 4
EELAYER 30 0
EELAYER END
$Descr A4 11693 8268
encoding utf-8
Sheet 6 6
Title "IZIRUNF4"
Date "2020-07-27"
Rev "A"
Comp "IZITRON"
Comment1 ""
Comment2 ""
Comment3 ""
Comment4 ""
$EndDescr
Connection ~ 6640 3500
$Comp
L device:C_Small C11
U 1 1 5ECD3D2D
P 6640 3680
F 0 "C11" H 6750 3760 59  0000 C CIB
F 1 "10uF" H 6740 3605 39  0000 C CIB
F 2 "Capacitor_SMD:C_0603_1608Metric" H 6640 3680 39  0001 C CIB
F 3 "~" H 6640 3680 39  0001 C CIB
F 4 "https://fr.farnell.com/murata/grm21br61c106ke15k/condensateur-10-f-16v-10-x5r-0805/dp/2611940" H -1285 130 39  0001 C CIB "Distributor"
F 5 "GRM21BR61C106KE15K" H -1285 130 39  0001 C CIB "Manufacture Ref"
	1    6640 3680
	1    0    0    -1  
$EndComp
$Comp
L power:GND #PWR07
U 1 1 5ECE1140
P 5745 4560
F 0 "#PWR07" H 5745 4310 59  0001 C CIB
F 1 "GND" H 5745 4415 39  0000 C CIB
F 2 "" H 5745 4560 39  0001 C CIB
F 3 "" H 5745 4560 39  0001 C CIB
	1    5745 4560
	1    0    0    -1  
$EndComp
$Comp
L power:+3V3 #PWR08
U 1 1 5EC774DF
P 6640 3260
F 0 "#PWR08" H 6640 3110 59  0001 C CIB
F 1 "+3V3" H 6655 3433 39  0000 C CIB
F 2 "" H 6640 3260 39  0001 C CIB
F 3 "" H 6640 3260 39  0001 C CIB
	1    6640 3260
	1    0    0    -1  
$EndComp
Wire Wire Line
	6640 3260 6640 3500
Wire Wire Line
	6640 3780 6640 3940
Wire Wire Line
	6640 3500 6640 3580
Wire Wire Line
	5745 4420 5745 4560
Wire Wire Line
	6350 3500 6485 3500
Wire Wire Line
	5150 3500 5020 3500
Wire Wire Line
	4320 3500 4320 3580
$Comp
L power:+5V #PWR04
U 1 1 5F050ACE
P 4320 3255
F 0 "#PWR04" H 4320 3105 59  0001 C CIB
F 1 "+5V" H 4335 3428 39  0000 C CIB
F 2 "" H 4320 3255 39  0001 C CIB
F 3 "" H 4320 3255 39  0001 C CIB
	1    4320 3255
	1    0    0    -1  
$EndComp
Wire Wire Line
	4320 3255 4320 3500
Connection ~ 4320 3500
Text Notes 5910 2460 2    79   Italic 16
LDO
Text Notes 6150 775  2    118  Italic 24
POWER
$Comp
L power:GND #PWR09
U 1 1 5ECB8F51
P 6640 3940
F 0 "#PWR09" H 6640 3690 59  0001 C CIB
F 1 "GND" H 6645 3795 39  0000 C CIB
F 2 "" H 6640 3940 39  0001 C CIB
F 3 "" H 6640 3940 39  0001 C CIB
	1    6640 3940
	1    0    0    -1  
$EndComp
$Comp
L device:C_Small C10
U 1 1 5F06B7CB
P 4740 3680
F 0 "C10" H 4850 3760 59  0000 C CIB
F 1 "1uF" H 4835 3605 39  0000 C CIB
F 2 "Capacitor_SMD:C_0603_1608Metric" H 4740 3680 39  0001 C CIB
F 3 "~" H 4740 3680 39  0001 C CIB
F 4 "https://fr.farnell.com/murata/grm21br61c106ke15k/condensateur-10-f-16v-10-x5r-0805/dp/2611940" H -3185 130 39  0001 C CIB "Distributor"
F 5 "GRM21BR61C106KE15K" H -3185 130 39  0001 C CIB "Manufacture Ref"
	1    4740 3680
	1    0    0    -1  
$EndComp
$Comp
L power:GND #PWR06
U 1 1 5EF7E054
P 4740 3940
F 0 "#PWR06" H 4740 3690 59  0001 C CIB
F 1 "GND" H 4745 3795 39  0000 C CIB
F 2 "" H 4740 3940 39  0001 C CIB
F 3 "" H 4740 3940 39  0001 C CIB
	1    4740 3940
	1    0    0    -1  
$EndComp
Wire Wire Line
	4740 3940 4740 3780
Wire Wire Line
	4740 3580 4740 3500
Connection ~ 4740 3500
Wire Wire Line
	4740 3500 4320 3500
$Comp
L power:GND #PWR05
U 1 1 5ECF6773
P 4320 3940
F 0 "#PWR05" H 4320 3690 59  0001 C CIB
F 1 "GND" H 4325 3795 39  0000 C CIB
F 2 "" H 4320 3940 39  0001 C CIB
F 3 "" H 4320 3940 39  0001 C CIB
	1    4320 3940
	1    0    0    -1  
$EndComp
Wire Wire Line
	4320 3780 4320 3940
$Comp
L power:PWR_FLAG #FLG?
U 1 1 5F21C709
P 1265 1250
AR Path="/5F047122/5EFE5807" Ref="#FLG?"  Part="1" 
AR Path="/5F047122/5F21C709" Ref="#FLG03"  Part="1" 
F 0 "#FLG03" H 1265 1325 59  0001 C CIB
F 1 "PWR_FLAG" V 1270 1515 39  0000 C CIB
F 2 "" H 1265 1250 39  0001 C CIB
F 3 "~" H 1265 1250 39  0001 C CIB
	1    1265 1250
	0    -1   -1   0   
$EndComp
Wire Wire Line
	1265 1250 1515 1250
$Comp
L power:GND #PWR03
U 1 1 5F003546
P 1515 1250
F 0 "#PWR03" H 1515 1000 59  0001 C CIB
F 1 "GND" V 1515 1060 39  0000 C CIB
F 2 "" H 1515 1250 39  0001 C CIB
F 3 "" H 1515 1250 39  0001 C CIB
	1    1515 1250
	0    -1   -1   0   
$EndComp
$Comp
L power:+3V3 #PWR02
U 1 1 5EFE989E
P 1515 1100
F 0 "#PWR02" H 1515 950 59  0001 C CIB
F 1 "+3V3" V 1515 1300 39  0000 C CIB
F 2 "" H 1515 1100 39  0001 C CIB
F 3 "" H 1515 1100 39  0001 C CIB
	1    1515 1100
	0    1    1    0   
$EndComp
Wire Wire Line
	1265 1100 1515 1100
$Comp
L power:PWR_FLAG #FLG02
U 1 1 5EFE5807
P 1265 1100
F 0 "#FLG02" H 1265 1175 59  0001 C CIB
F 1 "PWR_FLAG" V 1270 1365 39  0000 C CIB
F 2 "" H 1265 1100 39  0001 C CIB
F 3 "~" H 1265 1100 39  0001 C CIB
	1    1265 1100
	0    -1   -1   0   
$EndComp
$Comp
L power:+5V #PWR01
U 1 1 5EFE35FD
P 1510 950
F 0 "#PWR01" H 1510 800 59  0001 C CIB
F 1 "+5V" V 1510 1130 39  0000 C CIB
F 2 "" H 1510 950 39  0001 C CIB
F 3 "" H 1510 950 39  0001 C CIB
	1    1510 950 
	0    1    1    0   
$EndComp
Wire Wire Line
	1265 950  1510 950 
$Comp
L power:PWR_FLAG #FLG01
U 1 1 5CECAE3E
P 1265 950
F 0 "#FLG01" H 1265 1025 59  0001 C CIB
F 1 "PWR_FLAG" V 1270 1215 39  0000 C CIB
F 2 "" H 1265 950 39  0001 C CIB
F 3 "~" H 1265 950 39  0001 C CIB
	1    1265 950 
	0    -1   -1   0   
$EndComp
$Comp
L device:LED_Small D?
U 1 1 5CC01C20
P 7600 3500
AR Path="/5C8F350B/5CC01C20" Ref="D?"  Part="1" 
AR Path="/5C90C3D3/5CC01C20" Ref="D?"  Part="1" 
AR Path="/5EB5BEF3/5CC01C20" Ref="D?"  Part="1" 
AR Path="/5F047122/5CC01C20" Ref="D2"  Part="1" 
F 0 "D2" H 7595 3620 59  0000 C CIB
F 1 "GREEN 2mA" H 7600 3420 39  0000 C CIB
F 2 "LED_SMD:LED_0805_2012Metric" V 7600 3500 39  0001 C CIB
F 3 "~" V 7600 3500 39  0001 C CIB
F 4 "2217981" H 7600 3500 39  0001 C CIB "FARNELL"
F 5 "KPT-2012ZGC" H 7605 3350 39  0000 C CIB "FAB REF"
F 6 "C598372" H 7600 3500 39  0001 C CIB "LCSC"
	1    7600 3500
	-1   0    0    1   
$EndComp
$Comp
L device:R_Small R?
U 1 1 5CC01C19
P 7305 3500
AR Path="/5CC01C19" Ref="R?"  Part="1" 
AR Path="/5C8F350B/5CC01C19" Ref="R?"  Part="1" 
AR Path="/5C90C3D3/5CC01C19" Ref="R?"  Part="1" 
AR Path="/5EB5BEF3/5CC01C19" Ref="R?"  Part="1" 
AR Path="/5F047122/5CC01C19" Ref="R8"  Part="1" 
F 0 "R8" V 7390 3500 59  0000 C CIB
F 1 "750" V 7305 3495 39  0000 C CIB
F 2 "Resistor_SMD:R_0603_1608Metric" H 7305 3500 39  0001 C CIB
F 3 "~" H 7305 3500 39  0001 C CIB
	1    7305 3500
	0    -1   1    0   
$EndComp
$Comp
L power:GND #PWR?
U 1 1 5CC01C27
P 7750 3500
AR Path="/5CC01C27" Ref="#PWR?"  Part="1" 
AR Path="/5C8F350B/5CC01C27" Ref="#PWR?"  Part="1" 
AR Path="/5C90C3D3/5CC01C27" Ref="#PWR?"  Part="1" 
AR Path="/5EB5BEF3/5CC01C27" Ref="#PWR?"  Part="1" 
AR Path="/5F047122/5CC01C27" Ref="#PWR010"  Part="1" 
F 0 "#PWR010" H 7750 3250 59  0001 C CIB
F 1 "GND" V 7745 3320 39  0000 C CIB
F 2 "" H 7750 3500 39  0001 C CIB
F 3 "" H 7750 3500 39  0001 C CIB
	1    7750 3500
	0    -1   1    0   
$EndComp
Wire Wire Line
	7700 3500 7750 3500
Wire Wire Line
	6640 3500 7205 3500
Wire Wire Line
	7405 3500 7500 3500
$Comp
L device:C_Small C9
U 1 1 5ECFF147
P 4320 3680
F 0 "C9" H 4430 3760 59  0000 C CIB
F 1 "10uF" H 4415 3605 39  0000 C CIB
F 2 "Capacitor_SMD:C_0603_1608Metric" H 4320 3680 39  0001 C CIB
F 3 "~" H 4320 3680 39  0001 C CIB
F 4 "https://fr.farnell.com/murata/grm21br61c106ke15k/condensateur-10-f-16v-10-x5r-0805/dp/2611940" H -3605 130 39  0001 C CIB "Distributor"
F 5 "GRM21BR61C106KE15K" H -3605 130 39  0001 C CIB "Manufacture Ref"
	1    4320 3680
	1    0    0    -1  
$EndComp
$Comp
L SamacSys_Parts:NCP708MU330TAG U4
U 1 1 5FF13344
P 5750 3650
F 0 "U4" H 5750 4095 39  0000 C CIB
F 1 "NCP708MU330TAG" H 5750 4000 39  0000 C CIB
F 2 "SamacSys_Parts:SON95P300X300X55-7N" H 6800 3750 50  0001 L CNN
F 3 "https://www.onsemi.com/pub/Collateral/NCP708-D.PDF" H 6800 3650 50  0001 L CNN
F 4 "LDO Regulator Pos 3.3V 1A 6-Pin UDFN EP T/R" H 6800 3550 50  0001 L CNN "Description"
F 5 "0.55" H 6800 3450 50  0001 L CNN "Height"
F 6 "863-NCP708MU330TAG" H 6800 3350 50  0001 L CNN "Mouser Part Number"
F 7 "https://www.mouser.co.uk/ProductDetail/ON-Semiconductor/NCP708MU330TAG?qs=tCMd4XlZ%2FiAK%2FL2%2FBzPAnw%3D%3D" H 6800 3250 50  0001 L CNN "Mouser Price/Stock"
F 8 "ON Semiconductor" H 6800 3150 50  0001 L CNN "Manufacturer_Name"
F 9 "NCP708MU330TAG" H 6800 3050 50  0001 L CNN "Manufacturer_Part_Number"
	1    5750 3650
	1    0    0    -1  
$EndComp
Wire Wire Line
	5150 3750 5020 3750
Wire Wire Line
	5020 3750 5020 3500
Connection ~ 5020 3500
Wire Wire Line
	5020 3500 4740 3500
Wire Wire Line
	6350 3850 6485 3850
Wire Wire Line
	6485 3850 6485 3500
Connection ~ 6485 3500
Wire Wire Line
	6485 3500 6640 3500
Wire Wire Line
	5650 4420 5745 4420
Wire Wire Line
	5850 4250 5850 4420
Wire Wire Line
	5850 4420 5745 4420
Connection ~ 5745 4420
Wire Wire Line
	5650 4250 5650 4420
$EndSCHEMATC
